%YAML 1.1
%TAG !u! tag:unity3d.com,2011:
--- !u!1 &1019742498581426
GameObject:
  m_ObjectHideFlags: 0
  m_CorrespondingSourceObject: {fileID: 0}
  m_PrefabInstance: {fileID: 0}
  m_PrefabAsset: {fileID: 0}
  serializedVersion: 6
  m_Component:
  - component: {fileID: 4133684170409506}
  m_Layer: 0
  m_Name: joint26
  m_TagString: Untagged
  m_Icon: {fileID: 0}
  m_NavMeshLayer: 0
  m_StaticEditorFlags: 0
  m_IsActive: 1
--- !u!4 &4133684170409506
Transform:
  m_ObjectHideFlags: 0
  m_CorrespondingSourceObject: {fileID: 0}
  m_PrefabInstance: {fileID: 0}
  m_PrefabAsset: {fileID: 0}
  m_GameObject: {fileID: 1019742498581426}
  m_LocalRotation: {x: 0.7172667, y: 0.6967988, z: -4.266662e-17, w: -4.3919916e-17}
  m_LocalPosition: {x: 0.3197545, y: -0.0000025610398, z: 0.101789996}
  m_LocalScale: {x: 1, y: 1, z: 1}
  m_ConstrainProportionsScale: 0
  m_Children:
  - {fileID: 4684730704264996}
  m_Father: {fileID: 4913537641031632}
  m_RootOrder: 0
  m_LocalEulerAnglesHint: {x: -4.953861, y: 141.40044, z: 124.2222}
--- !u!1 &1087051828726218
GameObject:
  m_ObjectHideFlags: 0
  m_CorrespondingSourceObject: {fileID: 0}
  m_PrefabInstance: {fileID: 0}
  m_PrefabAsset: {fileID: 0}
  serializedVersion: 6
  m_Component:
  - component: {fileID: 4347767564114306}
  m_Layer: 0
  m_Name: joint23
  m_TagString: Untagged
  m_Icon: {fileID: 0}
  m_NavMeshLayer: 0
  m_StaticEditorFlags: 0
  m_IsActive: 1
--- !u!4 &4347767564114306
Transform:
  m_ObjectHideFlags: 0
  m_CorrespondingSourceObject: {fileID: 0}
  m_PrefabInstance: {fileID: 0}
  m_PrefabAsset: {fileID: 0}
  m_GameObject: {fileID: 1087051828726218}
  m_LocalRotation: {x: 0.29985747, y: -0.6403792, z: -0.2526172, w: 0.6604427}
  m_LocalPosition: {x: -0.2614509, y: 0.15636502, z: -0.2595063}
  m_LocalScale: {x: 1, y: 1, z: 1}
  m_ConstrainProportionsScale: 0
  m_Children:
  - {fileID: 4138218728695936}
  m_Father: {fileID: 4950265037820782}
  m_RootOrder: 1
  m_LocalEulerAnglesHint: {x: 0, y: 0, z: 0}
--- !u!1 &1112200977472868
GameObject:
  m_ObjectHideFlags: 0
  m_CorrespondingSourceObject: {fileID: 0}
  m_PrefabInstance: {fileID: 0}
  m_PrefabAsset: {fileID: 0}
  serializedVersion: 6
  m_Component:
  - component: {fileID: 4326761234978304}
  m_Layer: 0
  m_Name: joint34
  m_TagString: Untagged
  m_Icon: {fileID: 0}
  m_NavMeshLayer: 0
  m_StaticEditorFlags: 0
  m_IsActive: 1
--- !u!4 &4326761234978304
Transform:
  m_ObjectHideFlags: 0
  m_CorrespondingSourceObject: {fileID: 0}
  m_PrefabInstance: {fileID: 0}
  m_PrefabAsset: {fileID: 0}
  m_GameObject: {fileID: 1112200977472868}
  m_LocalRotation: {x: 0.9275476, y: 0.37370437, z: -0.0006663341, w: -0.00043856626}
  m_LocalPosition: {x: 0.58177423, y: 0.029061388, z: 3.5527135e-16}
  m_LocalScale: {x: 1, y: 1, z: 1}
  m_ConstrainProportionsScale: 0
  m_Children:
  - {fileID: 4817420652868502}
  m_Father: {fileID: 4063519605448002}
  m_RootOrder: 0
  m_LocalEulerAnglesHint: {x: 0.14082542, y: -179.72247, z: 139.24521}
--- !u!1 &1127976109172146
GameObject:
  m_ObjectHideFlags: 0
  m_CorrespondingSourceObject: {fileID: 0}
  m_PrefabInstance: {fileID: 0}
  m_PrefabAsset: {fileID: 0}
  serializedVersion: 6
  m_Component:
  - component: {fileID: 4817420652868502}
  m_Layer: 0
  m_Name: joint35
  m_TagString: Untagged
  m_Icon: {fileID: 0}
  m_NavMeshLayer: 0
  m_StaticEditorFlags: 0
  m_IsActive: 1
--- !u!4 &4817420652868502
Transform:
  m_ObjectHideFlags: 0
  m_CorrespondingSourceObject: {fileID: 0}
  m_PrefabInstance: {fileID: 0}
  m_PrefabAsset: {fileID: 0}
  m_GameObject: {fileID: 1127976109172146}
  m_LocalRotation: {x: -1.3821802e-15, y: -3.407714e-15, z: -0.38321626, w: 0.92365867}
  m_LocalPosition: {x: 0.17722586, y: 0.0000008232345, z: 4.2632563e-16}
  m_LocalScale: {x: 1, y: 1, z: 1}
  m_ConstrainProportionsScale: 0
  m_Children:
  - {fileID: 4570263132665882}
  m_Father: {fileID: 4326761234978304}
  m_RootOrder: 0
  m_LocalEulerAnglesHint: {x: -2.4677517e-20, y: -1.6829379e-20, z: -59.45475}
--- !u!1 &1129148374106800
GameObject:
  m_ObjectHideFlags: 0
  m_CorrespondingSourceObject: {fileID: 0}
  m_PrefabInstance: {fileID: 0}
  m_PrefabAsset: {fileID: 0}
  serializedVersion: 6
  m_Component:
  - component: {fileID: 4913537641031632}
  m_Layer: 0
  m_Name: joint25
  m_TagString: Untagged
  m_Icon: {fileID: 0}
  m_NavMeshLayer: 0
  m_StaticEditorFlags: 0
  m_IsActive: 1
--- !u!4 &4913537641031632
Transform:
  m_ObjectHideFlags: 0
  m_CorrespondingSourceObject: {fileID: 0}
  m_PrefabInstance: {fileID: 0}
  m_PrefabAsset: {fileID: 0}
  m_GameObject: {fileID: 1129148374106800}
  m_LocalRotation: {x: 0, y: 0, z: 0.9863077, w: -0.16491574}
  m_LocalPosition: {x: 0.13339682, y: -0.2587072, z: 0.239372}
  m_LocalScale: {x: 1, y: 1, z: 1}
  m_ConstrainProportionsScale: 0
  m_Children:
  - {fileID: 4133684170409506}
  m_Father: {fileID: 4656475898395196}
  m_RootOrder: 2
  m_LocalEulerAnglesHint: {x: 0, y: 0, z: -161.0153}
--- !u!1 &1154217868130522
GameObject:
  m_ObjectHideFlags: 0
  m_CorrespondingSourceObject: {fileID: 0}
  m_PrefabInstance: {fileID: 0}
  m_PrefabAsset: {fileID: 0}
  serializedVersion: 6
  m_Component:
  - component: {fileID: 4945629276260376}
  m_Layer: 0
  m_Name: joint19
  m_TagString: Untagged
  m_Icon: {fileID: 0}
  m_NavMeshLayer: 0
  m_StaticEditorFlags: 0
  m_IsActive: 1
--- !u!4 &4945629276260376
Transform:
  m_ObjectHideFlags: 0
  m_CorrespondingSourceObject: {fileID: 0}
  m_PrefabInstance: {fileID: 0}
  m_PrefabAsset: {fileID: 0}
  m_GameObject: {fileID: 1154217868130522}
  m_LocalRotation: {x: 0.9311573, y: 0.36461672, z: 0.00075856986, w: 0.0004823283}
  m_LocalPosition: {x: -0.5817746, y: -0.029061059, z: 0}
  m_LocalScale: {x: 1, y: 1, z: 1}
  m_ConstrainProportionsScale: 0
  m_Children:
  - {fileID: 4536678833407064}
  m_Father: {fileID: 4134897692948640}
  m_RootOrder: 0
  m_LocalEulerAnglesHint: {x: -0.03651499, y: -8.765106, z: 136.97034}
--- !u!1 &1162032020387208
GameObject:
  m_ObjectHideFlags: 0
  m_CorrespondingSourceObject: {fileID: 0}
  m_PrefabInstance: {fileID: 0}
  m_PrefabAsset: {fileID: 0}
  serializedVersion: 6
  m_Component:
  - component: {fileID: 4827099614428822}
  m_Layer: 0
  m_Name: joint29
  m_TagString: Untagged
  m_Icon: {fileID: 0}
  m_NavMeshLayer: 0
  m_StaticEditorFlags: 0
  m_IsActive: 1
--- !u!4 &4827099614428822
Transform:
  m_ObjectHideFlags: 0
  m_CorrespondingSourceObject: {fileID: 0}
  m_PrefabInstance: {fileID: 0}
  m_PrefabAsset: {fileID: 0}
  m_GameObject: {fileID: 1162032020387208}
  m_LocalRotation: {x: -0.00085715024, y: 0.0014490075, z: 0.036252074, w: 0.9993413}
  m_LocalPosition: {x: 0.22771353, y: -0.00000012400824, z: -4.405365e-15}
  m_LocalScale: {x: 1, y: 1, z: 1}
  m_ConstrainProportionsScale: 0
  m_Children:
  - {fileID: 4890793436445384}
  m_Father: {fileID: 4072476778747308}
  m_RootOrder: 0
  m_LocalEulerAnglesHint: {x: 0.00000023362128, y: -0.0000006520363, z: -29.483406}
--- !u!1 &1191079956660372
GameObject:
  m_ObjectHideFlags: 0
  m_CorrespondingSourceObject: {fileID: 0}
  m_PrefabInstance: {fileID: 0}
  m_PrefabAsset: {fileID: 0}
  serializedVersion: 6
  m_Component:
  - component: {fileID: 4810395853125234}
  m_Layer: 0
  m_Name: joint15
  m_TagString: Untagged
  m_Icon: {fileID: 0}
  m_NavMeshLayer: 0
  m_StaticEditorFlags: 0
  m_IsActive: 1
--- !u!4 &4810395853125234
Transform:
  m_ObjectHideFlags: 0
  m_CorrespondingSourceObject: {fileID: 0}
  m_PrefabInstance: {fileID: 0}
  m_PrefabAsset: {fileID: 0}
  m_GameObject: {fileID: 1191079956660372}
  m_LocalRotation: {x: 0.019250935, y: 0.9998147, z: -6.0042215e-17, w: -6.239977e-17}
  m_LocalPosition: {x: 0.4413921, y: -0.08539741, z: -1.9623968e-16}
  m_LocalScale: {x: 1, y: 1, z: 1}
  m_ConstrainProportionsScale: 0
  m_Children:
  - {fileID: 4826585376029284}
  m_Father: {fileID: 4675472016388650}
  m_RootOrder: 1
  m_LocalEulerAnglesHint: {x: 0, y: 0, z: 0}
--- !u!1 &1204213343848868
GameObject:
  m_ObjectHideFlags: 0
  m_CorrespondingSourceObject: {fileID: 0}
  m_PrefabInstance: {fileID: 0}
  m_PrefabAsset: {fileID: 0}
  serializedVersion: 6
  m_Component:
  - component: {fileID: 4313362520371510}
  m_Layer: 0
  m_Name: joint13
  m_TagString: Untagged
  m_Icon: {fileID: 0}
  m_NavMeshLayer: 0
  m_StaticEditorFlags: 0
  m_IsActive: 1
--- !u!4 &4313362520371510
Transform:
  m_ObjectHideFlags: 0
  m_CorrespondingSourceObject: {fileID: 0}
  m_PrefabInstance: {fileID: 0}
  m_PrefabAsset: {fileID: 0}
  m_GameObject: {fileID: 1204213343848868}
  m_LocalRotation: {x: 0.0051448927, y: -0.0040083826, z: 0.052864853, w: 0.9985804}
  m_LocalPosition: {x: -0.22771339, y: 0, z: 1.4210854e-16}
  m_LocalScale: {x: 1, y: 1, z: 1}
  m_ConstrainProportionsScale: 0
  m_Children:
  - {fileID: 4230478552990330}
  m_Father: {fileID: 4111741565158630}
  m_RootOrder: 0
  m_LocalEulerAnglesHint: {x: 0.00000021027483, y: -0.0000004047144, z: -20.293522}
--- !u!1 &1214455609791806
GameObject:
  m_ObjectHideFlags: 0
  m_CorrespondingSourceObject: {fileID: 0}
  m_PrefabInstance: {fileID: 0}
  m_PrefabAsset: {fileID: 0}
  serializedVersion: 6
  m_Component:
  - component: {fileID: 4049620994032318}
  - component: {fileID: 137422542579224410}
  m_Layer: 0
  m_Name: polar-bear
  m_TagString: Untagged
  m_Icon: {fileID: 0}
  m_NavMeshLayer: 0
  m_StaticEditorFlags: 0
  m_IsActive: 1
--- !u!4 &4049620994032318
Transform:
  m_ObjectHideFlags: 0
  m_CorrespondingSourceObject: {fileID: 0}
  m_PrefabInstance: {fileID: 0}
  m_PrefabAsset: {fileID: 0}
  m_GameObject: {fileID: 1214455609791806}
  m_LocalRotation: {x: 1.7112914e-15, y: 1, z: -0.000000021855694, w: 0.0000000754979}
  m_LocalPosition: {x: 0, y: 0, z: 80.9}
  m_LocalScale: {x: 100, y: 100, z: 100}
  m_ConstrainProportionsScale: 0
  m_Children: []
  m_Father: {fileID: 4907367357004816}
  m_RootOrder: 1
  m_LocalEulerAnglesHint: {x: 0, y: 0, z: 0}
--- !u!137 &137422542579224410
SkinnedMeshRenderer:
  m_ObjectHideFlags: 0
  m_CorrespondingSourceObject: {fileID: 0}
  m_PrefabInstance: {fileID: 0}
  m_PrefabAsset: {fileID: 0}
  m_GameObject: {fileID: 1214455609791806}
  m_Enabled: 1
  m_CastShadows: 1
  m_ReceiveShadows: 1
  m_DynamicOccludee: 1
  m_StaticShadowCaster: 0
  m_MotionVectors: 1
  m_LightProbeUsage: 1
  m_ReflectionProbeUsage: 1
  m_RayTracingMode: 3
  m_RayTraceProcedural: 0
  m_RenderingLayerMask: 1
  m_RendererPriority: 0
  m_Materials:
  - {fileID: 2100000, guid: eab2965f5a08e4a8db0b09537976490b, type: 2}
  m_StaticBatchInfo:
    firstSubMesh: 0
    subMeshCount: 0
  m_StaticBatchRoot: {fileID: 0}
  m_ProbeAnchor: {fileID: 0}
  m_LightProbeVolumeOverride: {fileID: 0}
  m_ScaleInLightmap: 1
  m_ReceiveGI: 1
  m_PreserveUVs: 0
  m_IgnoreNormalsForChartDetection: 0
  m_ImportantGI: 0
  m_StitchLightmapSeams: 0
  m_SelectedEditorRenderState: 3
  m_MinimumChartSize: 4
  m_AutoUVMaxDistance: 0.5
  m_AutoUVMaxAngle: 89
  m_LightmapParameters: {fileID: 0}
  m_SortingLayerID: 0
  m_SortingLayer: 0
  m_SortingOrder: 0
  serializedVersion: 2
  m_Quality: 0
  m_UpdateWhenOffscreen: 0
  m_SkinnedMotionVectors: 1
  m_Mesh: {fileID: 4300000, guid: 81e4daf258a07cc4a842202b84a5ed3c, type: 3}
  m_Bones:
  - {fileID: 4675472016388650}
  - {fileID: 4309454450331620}
  - {fileID: 4008792256613338}
  - {fileID: 4857046954529472}
  - {fileID: 4656475898395196}
  - {fileID: 4950265037820782}
  - {fileID: 4825736707887608}
  - {fileID: 4987148794697604}
  - {fileID: 4001690678641430}
  - {fileID: 4061650158638598}
  - {fileID: 4347767564114306}
  - {fileID: 4138218728695936}
  - {fileID: 4537885103700060}
  - {fileID: 4141025503583432}
  - {fileID: 4858219303601184}
  - {fileID: 4820434575737206}
  - {fileID: 4497989286664084}
  - {fileID: 4111741565158630}
  - {fileID: 4313362520371510}
  - {fileID: 4230478552990330}
  - {fileID: 4913537641031632}
  - {fileID: 4133684170409506}
  - {fileID: 4684730704264996}
  - {fileID: 4072476778747308}
  - {fileID: 4827099614428822}
  - {fileID: 4890793436445384}
  - {fileID: 4810395853125234}
  - {fileID: 4826585376029284}
  - {fileID: 4811745237878376}
  - {fileID: 4317017676463688}
  - {fileID: 4134897692948640}
  - {fileID: 4945629276260376}
  - {fileID: 4536678833407064}
  - {fileID: 4536550320486482}
  - {fileID: 4140923033130106}
  - {fileID: 4565125897118404}
  - {fileID: 4063519605448002}
  - {fileID: 4326761234978304}
  - {fileID: 4817420652868502}
  - {fileID: 4570263132665882}
  m_BlendShapeWeights: []
  m_RootBone: {fileID: 4675472016388650}
  m_AABB:
    m_Center: {x: -0.97730756, y: -0.64960724, z: 0.02680567}
    m_Extent: {x: 1.8808148, y: 1.2148516, z: 0.77199125}
  m_DirtyAABB: 0
--- !u!1 &1240318888801720
GameObject:
  m_ObjectHideFlags: 0
  m_CorrespondingSourceObject: {fileID: 0}
  m_PrefabInstance: {fileID: 0}
  m_PrefabAsset: {fileID: 0}
  serializedVersion: 6
  m_Component:
  - component: {fileID: 4497989286664084}
  m_Layer: 0
  m_Name: joint11
  m_TagString: Untagged
  m_Icon: {fileID: 0}
  m_NavMeshLayer: 0
  m_StaticEditorFlags: 0
  m_IsActive: 1
--- !u!4 &4497989286664084
Transform:
  m_ObjectHideFlags: 0
  m_CorrespondingSourceObject: {fileID: 0}
  m_PrefabInstance: {fileID: 0}
  m_PrefabAsset: {fileID: 0}
  m_GameObject: {fileID: 1240318888801720}
  m_LocalRotation: {x: -0.093414105, y: 0.01378352, z: 0.4158036, w: 0.9045392}
  m_LocalPosition: {x: -0.33028662, y: 8.8817837e-17, z: 0}
  m_LocalScale: {x: 1, y: 1, z: 1}
  m_ConstrainProportionsScale: 0
  m_Children:
  - {fileID: 4111741565158630}
  m_Father: {fileID: 4820434575737206}
  m_RootOrder: 0
  m_LocalEulerAnglesHint: {x: 7.75404e-15, y: -5.7638034e-15, z: 82.25308}
--- !u!1 &1254128285126706
GameObject:
  m_ObjectHideFlags: 0
  m_CorrespondingSourceObject: {fileID: 0}
  m_PrefabInstance: {fileID: 0}
  m_PrefabAsset: {fileID: 0}
  serializedVersion: 6
  m_Component:
  - component: {fileID: 4811745237878376}
  m_Layer: 0
  m_Name: joint22
  m_TagString: Untagged
  m_Icon: {fileID: 0}
  m_NavMeshLayer: 0
  m_StaticEditorFlags: 0
  m_IsActive: 1
--- !u!4 &4811745237878376
Transform:
  m_ObjectHideFlags: 0
  m_CorrespondingSourceObject: {fileID: 0}
  m_PrefabInstance: {fileID: 0}
  m_PrefabAsset: {fileID: 0}
  m_GameObject: {fileID: 1254128285126706}
  m_LocalRotation: {x: 0, y: -0, z: -0, w: 1}
  m_LocalPosition: {x: 0.17521389, y: -0.2986614, z: -0.23937234}
  m_LocalScale: {x: 1, y: 1, z: 1}
  m_ConstrainProportionsScale: 0
  m_Children:
  - {fileID: 4317017676463688}
  m_Father: {fileID: 4675472016388650}
  m_RootOrder: 2
  m_LocalEulerAnglesHint: {x: 0, y: 0, z: 0}
--- !u!1 &1276588612823598
GameObject:
  m_ObjectHideFlags: 0
  m_CorrespondingSourceObject: {fileID: 0}
  m_PrefabInstance: {fileID: 0}
  m_PrefabAsset: {fileID: 0}
  serializedVersion: 6
  m_Component:
  - component: {fileID: 4857046954529472}
  m_Layer: 0
  m_Name: joint4
  m_TagString: Untagged
  m_Icon: {fileID: 0}
  m_NavMeshLayer: 0
  m_StaticEditorFlags: 0
  m_IsActive: 1
--- !u!4 &4857046954529472
Transform:
  m_ObjectHideFlags: 0
  m_CorrespondingSourceObject: {fileID: 0}
  m_PrefabInstance: {fileID: 0}
  m_PrefabAsset: {fileID: 0}
  m_GameObject: {fileID: 1276588612823598}
  m_LocalRotation: {x: -0.0011890257, y: 0.011030049, z: 0.12741172, w: 0.9917879}
  m_LocalPosition: {x: -0.48005173, y: 2.8421708e-15, z: 2.1318518e-16}
  m_LocalScale: {x: 1, y: 1, z: 1}
  m_ConstrainProportionsScale: 0
  m_Children:
  - {fileID: 4656475898395196}
  m_Father: {fileID: 4008792256613338}
  m_RootOrder: 0
  m_LocalEulerAnglesHint: {x: 0.098341875, y: 0.4339358, z: 29.122156}
--- !u!1 &1295225009527814
GameObject:
  m_ObjectHideFlags: 0
  m_CorrespondingSourceObject: {fileID: 0}
  m_PrefabInstance: {fileID: 0}
  m_PrefabAsset: {fileID: 0}
  serializedVersion: 6
  m_Component:
  - component: {fileID: 4140923033130106}
  m_Layer: 0
  m_Name: joint31
  m_TagString: Untagged
  m_Icon: {fileID: 0}
  m_NavMeshLayer: 0
  m_StaticEditorFlags: 0
  m_IsActive: 1
--- !u!4 &4140923033130106
Transform:
  m_ObjectHideFlags: 0
  m_CorrespondingSourceObject: {fileID: 0}
  m_PrefabInstance: {fileID: 0}
  m_PrefabAsset: {fileID: 0}
  m_GameObject: {fileID: 1295225009527814}
  m_LocalRotation: {x: 0, y: 0, z: 1, w: 6.123234e-17}
  m_LocalPosition: {x: 0.17521383, y: -0.29866067, z: 0.239372}
  m_LocalScale: {x: 1, y: 1, z: 1}
  m_ConstrainProportionsScale: 0
  m_Children:
  - {fileID: 4565125897118404}
  m_Father: {fileID: 4675472016388650}
  m_RootOrder: 3
  m_LocalEulerAnglesHint: {x: 0, y: 0, z: 179.99998}
--- !u!1 &1297588392676694
GameObject:
  m_ObjectHideFlags: 0
  m_CorrespondingSourceObject: {fileID: 0}
  m_PrefabInstance: {fileID: 0}
  m_PrefabAsset: {fileID: 0}
  serializedVersion: 6
  m_Component:
  - component: {fileID: 4684730704264996}
  m_Layer: 0
  m_Name: joint27
  m_TagString: Untagged
  m_Icon: {fileID: 0}
  m_NavMeshLayer: 0
  m_StaticEditorFlags: 0
  m_IsActive: 1
--- !u!4 &4684730704264996
Transform:
  m_ObjectHideFlags: 0
  m_CorrespondingSourceObject: {fileID: 0}
  m_PrefabInstance: {fileID: 0}
  m_PrefabAsset: {fileID: 0}
  m_GameObject: {fileID: 1297588392676694}
  m_LocalRotation: {x: 0.07331903, y: -0.031038633, z: 0.46799725, w: 0.88013613}
  m_LocalPosition: {x: 0.3302893, y: 0.000003548103, z: -7.105427e-17}
  m_LocalScale: {x: 1, y: 1, z: 1}
  m_ConstrainProportionsScale: 0
  m_Children:
  - {fileID: 4072476778747308}
  m_Father: {fileID: 4133684170409506}
  m_RootOrder: 0
  m_LocalEulerAnglesHint: {x: 4.144051e-15, y: -2.0284254e-15, z: 42.99663}
--- !u!1 &1338010284885092
GameObject:
  m_ObjectHideFlags: 0
  m_CorrespondingSourceObject: {fileID: 0}
  m_PrefabInstance: {fileID: 0}
  m_PrefabAsset: {fileID: 0}
  serializedVersion: 6
  m_Component:
  - component: {fileID: 4061650158638598}
  m_Layer: 0
  m_Name: joint40
  m_TagString: Untagged
  m_Icon: {fileID: 0}
  m_NavMeshLayer: 0
  m_StaticEditorFlags: 0
  m_IsActive: 1
--- !u!4 &4061650158638598
Transform:
  m_ObjectHideFlags: 0
  m_CorrespondingSourceObject: {fileID: 0}
  m_PrefabInstance: {fileID: 0}
  m_PrefabAsset: {fileID: 0}
  m_GameObject: {fileID: 1338010284885092}
  m_LocalRotation: {x: 0, y: -0, z: -0, w: 1}
  m_LocalPosition: {x: -0.22119367, y: -0.11729143, z: 5.2384078e-17}
  m_LocalScale: {x: 1, y: 1, z: 1}
  m_ConstrainProportionsScale: 0
  m_Children: []
  m_Father: {fileID: 4001690678641430}
  m_RootOrder: 0
  m_LocalEulerAnglesHint: {x: 0, y: 0, z: 0}
--- !u!1 &1390854575420336
GameObject:
  m_ObjectHideFlags: 0
  m_CorrespondingSourceObject: {fileID: 0}
  m_PrefabInstance: {fileID: 0}
  m_PrefabAsset: {fileID: 0}
  serializedVersion: 6
  m_Component:
  - component: {fileID: 4230478552990330}
  m_Layer: 0
  m_Name: joint14
  m_TagString: Untagged
  m_Icon: {fileID: 0}
  m_NavMeshLayer: 0
  m_StaticEditorFlags: 0
  m_IsActive: 1
--- !u!4 &4230478552990330
Transform:
  m_ObjectHideFlags: 0
  m_CorrespondingSourceObject: {fileID: 0}
  m_PrefabInstance: {fileID: 0}
  m_PrefabAsset: {fileID: 0}
  m_GameObject: {fileID: 1390854575420336}
  m_LocalRotation: {x: 0, y: 0, z: 0.030178482, w: 0.99954456}
  m_LocalPosition: {x: -0.24568075, y: 0, z: 0.0000000040669046}
  m_LocalScale: {x: 1, y: 1, z: 1}
  m_ConstrainProportionsScale: 0
  m_Children: []
  m_Father: {fileID: 4313362520371510}
  m_RootOrder: 0
  m_LocalEulerAnglesHint: {x: 0, y: 0, z: 3.4587245}
--- !u!1 &1395413738305756
GameObject:
  m_ObjectHideFlags: 0
  m_CorrespondingSourceObject: {fileID: 0}
  m_PrefabInstance: {fileID: 0}
  m_PrefabAsset: {fileID: 0}
  serializedVersion: 6
  m_Component:
  - component: {fileID: 4826585376029284}
  m_Layer: 0
  m_Name: joint16
  m_TagString: Untagged
  m_Icon: {fileID: 0}
  m_NavMeshLayer: 0
  m_StaticEditorFlags: 0
  m_IsActive: 1
--- !u!4 &4826585376029284
Transform:
  m_ObjectHideFlags: 0
  m_CorrespondingSourceObject: {fileID: 0}
  m_PrefabInstance: {fileID: 0}
  m_PrefabAsset: {fileID: 0}
  m_GameObject: {fileID: 1395413738305756}
  m_LocalRotation: {x: 0.019250935, y: 0.9998147, z: -6.0042215e-17, w: -6.239977e-17}
  m_LocalPosition: {x: -0.17890473, y: 0, z: 1.779782e-17}
  m_LocalScale: {x: 1, y: 1, z: 1}
  m_ConstrainProportionsScale: 0
  m_Children: []
  m_Father: {fileID: 4810395853125234}
  m_RootOrder: 0
  m_LocalEulerAnglesHint: {x: 0, y: 0, z: 0}
--- !u!1 &1398107967256350
GameObject:
  m_ObjectHideFlags: 0
  m_CorrespondingSourceObject: {fileID: 0}
  m_PrefabInstance: {fileID: 0}
  m_PrefabAsset: {fileID: 0}
  serializedVersion: 6
  m_Component:
  - component: {fileID: 4675472016388650}
  m_Layer: 0
  m_Name: joint1
  m_TagString: Untagged
  m_Icon: {fileID: 0}
  m_NavMeshLayer: 0
  m_StaticEditorFlags: 0
  m_IsActive: 1
--- !u!4 &4675472016388650
Transform:
  m_ObjectHideFlags: 0
  m_CorrespondingSourceObject: {fileID: 0}
  m_PrefabInstance: {fileID: 0}
  m_PrefabAsset: {fileID: 0}
  m_GameObject: {fileID: 1398107967256350}
  m_LocalRotation: {x: 0.029526208, y: 0.71429735, z: 0.029067334, w: 0.69861484}
  m_LocalPosition: {x: 0, y: 1.7004318, z: -0.63482475}
  m_LocalScale: {x: 1, y: 1, z: 1}
  m_ConstrainProportionsScale: 0
  m_Children:
  - {fileID: 4309454450331620}
  - {fileID: 4810395853125234}
  - {fileID: 4811745237878376}
  - {fileID: 4140923033130106}
  m_Father: {fileID: 4907367357004816}
  m_RootOrder: 0
  m_LocalEulerAnglesHint: {x: -1.7760353, y: 90.12796, z: -82.82059}
--- !u!1 &1439311972541598
GameObject:
  m_ObjectHideFlags: 0
  m_CorrespondingSourceObject: {fileID: 0}
  m_PrefabInstance: {fileID: 0}
  m_PrefabAsset: {fileID: 0}
  serializedVersion: 6
  m_Component:
  - component: {fileID: 4008792256613338}
  m_Layer: 0
  m_Name: joint3
  m_TagString: Untagged
  m_Icon: {fileID: 0}
  m_NavMeshLayer: 0
  m_StaticEditorFlags: 0
  m_IsActive: 1
--- !u!4 &4008792256613338
Transform:
  m_ObjectHideFlags: 0
  m_CorrespondingSourceObject: {fileID: 0}
  m_PrefabInstance: {fileID: 0}
  m_PrefabAsset: {fileID: 0}
  m_GameObject: {fileID: 1439311972541598}
  m_LocalRotation: {x: 0.0005165642, y: 0.011081917, z: 0.04655983, w: 0.9988539}
  m_LocalPosition: {x: -0.45181337, y: 1.9895197e-15, z: 2.0064487e-16}
  m_LocalScale: {x: 1, y: 1, z: 1}
  m_ConstrainProportionsScale: 0
  m_Children:
  - {fileID: 4857046954529472}
  m_Father: {fileID: 4309454450331620}
  m_RootOrder: 0
  m_LocalEulerAnglesHint: {x: 0.036199808, y: 0.9503064, z: 16.560326}
--- !u!1 &1465979588879394
GameObject:
  m_ObjectHideFlags: 0
  m_CorrespondingSourceObject: {fileID: 0}
  m_PrefabInstance: {fileID: 0}
  m_PrefabAsset: {fileID: 0}
  serializedVersion: 6
  m_Component:
  - component: {fileID: 4536678833407064}
  m_Layer: 0
  m_Name: joint20
  m_TagString: Untagged
  m_Icon: {fileID: 0}
  m_NavMeshLayer: 0
  m_StaticEditorFlags: 0
  m_IsActive: 1
--- !u!4 &4536678833407064
Transform:
  m_ObjectHideFlags: 0
  m_CorrespondingSourceObject: {fileID: 0}
  m_PrefabInstance: {fileID: 0}
  m_PrefabAsset: {fileID: 0}
  m_GameObject: {fileID: 1465979588879394}
  m_LocalRotation: {x: -1.3580036e-17, y: 5.9211843e-16, z: -0.4001845, w: 0.91643465}
  m_LocalPosition: {x: -0.1772254, y: 0, z: 3.5527135e-16}
  m_LocalScale: {x: 1, y: 1, z: 1}
  m_ConstrainProportionsScale: 0
  m_Children:
  - {fileID: 4536550320486482}
  m_Father: {fileID: 4945629276260376}
  m_RootOrder: 0
  m_LocalEulerAnglesHint: {x: 2.606181e-18, y: 4.851521e-18, z: -59.4484}
--- !u!1 &1498246837707476
GameObject:
  m_ObjectHideFlags: 0
  m_CorrespondingSourceObject: {fileID: 0}
  m_PrefabInstance: {fileID: 0}
  m_PrefabAsset: {fileID: 0}
  serializedVersion: 6
  m_Component:
  - component: {fileID: 4536550320486482}
  m_Layer: 0
  m_Name: joint21
  m_TagString: Untagged
  m_Icon: {fileID: 0}
  m_NavMeshLayer: 0
  m_StaticEditorFlags: 0
  m_IsActive: 1
--- !u!4 &4536550320486482
Transform:
  m_ObjectHideFlags: 0
  m_CorrespondingSourceObject: {fileID: 0}
  m_PrefabInstance: {fileID: 0}
  m_PrefabAsset: {fileID: 0}
  m_GameObject: {fileID: 1498246837707476}
  m_LocalRotation: {x: 0, y: -0, z: -0.16619597, w: 0.98609275}
  m_LocalPosition: {x: -0.30519038, y: -7.105427e-16, z: -7.105427e-16}
  m_LocalScale: {x: 1, y: 1, z: 1}
  m_ConstrainProportionsScale: 0
  m_Children: []
  m_Father: {fileID: 4536678833407064}
  m_RootOrder: 0
  m_LocalEulerAnglesHint: {x: 0, y: 0, z: -19.133434}
--- !u!1 &1514481875857408
GameObject:
  m_ObjectHideFlags: 0
  m_CorrespondingSourceObject: {fileID: 0}
  m_PrefabInstance: {fileID: 0}
  m_PrefabAsset: {fileID: 0}
  serializedVersion: 6
  m_Component:
  - component: {fileID: 4909805588602726}
  - component: {fileID: 95827728344365426}
  - component: {fileID: 143446801359637758}
  - component: {fileID: 82754932295691656}
  - component: {fileID: 114596199732060686}
  - component: {fileID: 114730609460955830}
  - component: {fileID: 195644442718834230}
  m_Layer: 0
  m_Name: Bear
  m_TagString: Untagged
  m_Icon: {fileID: 0}
  m_NavMeshLayer: 0
  m_StaticEditorFlags: 0
  m_IsActive: 1
--- !u!4 &4909805588602726
Transform:
  m_ObjectHideFlags: 0
  m_CorrespondingSourceObject: {fileID: 0}
  m_PrefabInstance: {fileID: 0}
  m_PrefabAsset: {fileID: 0}
  m_GameObject: {fileID: 1514481875857408}
  m_LocalRotation: {x: 0, y: 0, z: 0, w: 1}
  m_LocalPosition: {x: 0, y: 0, z: 0}
  m_LocalScale: {x: 0.05, y: 0.05, z: 0.05}
  m_ConstrainProportionsScale: 0
  m_Children:
  - {fileID: 4907367357004816}
  m_Father: {fileID: 0}
  m_RootOrder: 0
  m_LocalEulerAnglesHint: {x: 0, y: 0, z: 0}
--- !u!95 &95827728344365426
Animator:
  serializedVersion: 4
  m_ObjectHideFlags: 0
  m_CorrespondingSourceObject: {fileID: 0}
  m_PrefabInstance: {fileID: 0}
  m_PrefabAsset: {fileID: 0}
  m_GameObject: {fileID: 1514481875857408}
  m_Enabled: 1
  m_Avatar: {fileID: 9000000, guid: 81e4daf258a07cc4a842202b84a5ed3c, type: 3}
  m_Controller: {fileID: 9100000, guid: c374f9c5e6100914897da6d41b85fb1d, type: 2}
  m_CullingMode: 1
  m_UpdateMode: 0
  m_ApplyRootMotion: 0
  m_LinearVelocityBlending: 0
  m_StabilizeFeet: 0
  m_WarningMessage: 
  m_HasTransformHierarchy: 1
  m_AllowConstantClipSamplingOptimization: 1
  m_KeepAnimatorControllerStateOnDisable: 0
--- !u!143 &143446801359637758
CharacterController:
  m_ObjectHideFlags: 0
  m_CorrespondingSourceObject: {fileID: 0}
  m_PrefabInstance: {fileID: 0}
  m_PrefabAsset: {fileID: 0}
  m_GameObject: {fileID: 1514481875857408}
  m_Material: {fileID: 0}
  m_IsTrigger: 0
  m_Enabled: 1
  serializedVersion: 2
  m_Height: 2
  m_Radius: 1.06
  m_SlopeLimit: 45
  m_StepOffset: 0.3
  m_SkinWidth: 0.08
  m_MinMoveDistance: 0.001
  m_Center: {x: 0, y: 1.06, z: 0}
--- !u!82 &82754932295691656
AudioSource:
  m_ObjectHideFlags: 0
  m_CorrespondingSourceObject: {fileID: 0}
  m_PrefabInstance: {fileID: 0}
  m_PrefabAsset: {fileID: 0}
  m_GameObject: {fileID: 1514481875857408}
  m_Enabled: 1
  serializedVersion: 4
  OutputAudioMixerGroup: {fileID: 0}
  m_audioClip: {fileID: 0}
  m_PlayOnAwake: 1
  m_Volume: 1
  m_Pitch: 1
  Loop: 0
  Mute: 0
  Spatialize: 0
  SpatializePostEffects: 0
  Priority: 128
  DopplerLevel: 1
  MinDistance: 1
  MaxDistance: 500
  Pan2D: 0
  rolloffMode: 0
  BypassEffects: 1
  BypassListenerEffects: 0
  BypassReverbZones: 0
  rolloffCustomCurve:
    serializedVersion: 2
    m_Curve:
    - serializedVersion: 3
      time: 0
      value: 1
      inSlope: 0
      outSlope: 0
      tangentMode: 0
      weightedMode: 0
      inWeight: 0.33333334
      outWeight: 0.33333334
    - serializedVersion: 3
      time: 1
      value: 0
      inSlope: 0
      outSlope: 0
      tangentMode: 0
      weightedMode: 0
      inWeight: 0.33333334
      outWeight: 0.33333334
    m_PreInfinity: 2
    m_PostInfinity: 2
    m_RotationOrder: 4
  panLevelCustomCurve:
    serializedVersion: 2
    m_Curve:
    - serializedVersion: 3
      time: 0
      value: 0
      inSlope: 0
      outSlope: 0
      tangentMode: 0
      weightedMode: 0
      inWeight: 0.33333334
      outWeight: 0.33333334
    m_PreInfinity: 2
    m_PostInfinity: 2
    m_RotationOrder: 0
  spreadCustomCurve:
    serializedVersion: 2
    m_Curve:
    - serializedVersion: 3
      time: 0
      value: 0
      inSlope: 0
      outSlope: 0
      tangentMode: 0
      weightedMode: 0
      inWeight: 0.33333334
      outWeight: 0.33333334
    m_PreInfinity: 2
    m_PostInfinity: 2
    m_RotationOrder: 0
  reverbZoneMixCustomCurve:
    serializedVersion: 2
    m_Curve:
    - serializedVersion: 3
      time: 0
      value: 1
      inSlope: 0
      outSlope: 0
      tangentMode: 0
      weightedMode: 0
      inWeight: 0.33333334
      outWeight: 0.33333334
    m_PreInfinity: 2
    m_PostInfinity: 2
    m_RotationOrder: 0
--- !u!114 &114596199732060686
MonoBehaviour:
  m_ObjectHideFlags: 0
  m_CorrespondingSourceObject: {fileID: 0}
  m_PrefabInstance: {fileID: 0}
  m_PrefabAsset: {fileID: 0}
  m_GameObject: {fileID: 1514481875857408}
  m_Enabled: 1
  m_EditorHideFlags: 0
  m_Script: {fileID: 11500000, guid: d0ca804d6b18f6d4db4ebe14203336f1, type: 3}
  m_Name: 
  m_EditorClassIdentifier: 
  animalSound: {fileID: 8300000, guid: aafad6057d8ff4b439280f5000d370a3, type: 3}
  walking: {fileID: 0}
  eating: {fileID: 0}
  running: {fileID: 0}
  attacking: {fileID: 8300000, guid: 2e77463d056f93647b1f400e5c8a0c56, type: 3}
  death: {fileID: 0}
  sleeping: {fileID: 0}
--- !u!114 &114730609460955830
MonoBehaviour:
  m_ObjectHideFlags: 0
  m_CorrespondingSourceObject: {fileID: 0}
  m_PrefabInstance: {fileID: 0}
  m_PrefabAsset: {fileID: 0}
  m_GameObject: {fileID: 1514481875857408}
  m_Enabled: 1
  m_EditorHideFlags: 0
  m_Script: {fileID: 11500000, guid: 36003be02bd7fc54db18675085e2ab6f, type: 3}
  m_Name: 
  m_EditorClassIdentifier: 
  idleStates:
  - stateName: StandUp
    animationBool: isStanding
    minStateTime: 5
    maxStateTime: 10
    stateWeight: 1
  movementStates:
  - stateName: Walk
    animationBool: isWalking
    maxStateTime: 10
    moveSpeed: 2
    turnSpeed: 100
  - stateName: Running
    animationBool: isRunning
    maxStateTime: 20
    moveSpeed: 6
    turnSpeed: 200
  attackingStates:
  - stateName: Attack
    animationBool: isAttacking
  deathStates:
  - stateName: Death
    animationBool: isDead
  species: Bear
  stats: {fileID: 11400000, guid: 7c0caf258cdab7a4fa8d1b3f9a9a5510, type: 2}
  wanderZone: 25
  awareness: 30
  scent: 30
  constainedToWanderZone: 0
  nonAgressiveTowards: []
  matchSurfaceRotation: 0
  surfaceRotationSpeed: 2
  logChanges: 0
  showGizmos: 0
  drawWanderRange: 1
  drawScentRange: 1
  drawAwarenessRange: 1
  deathEvent:
    m_PersistentCalls:
      m_Calls: []
  attackingEvent:
    m_PersistentCalls:
      m_Calls: []
  idleEvent:
    m_PersistentCalls:
      m_Calls: []
  movementEvent:
    m_PersistentCalls:
      m_Calls: []
  CurrentState: 0
--- !u!195 &195644442718834230
NavMeshAgent:
  m_ObjectHideFlags: 0
  m_CorrespondingSourceObject: {fileID: 0}
  m_PrefabInstance: {fileID: 0}
  m_PrefabAsset: {fileID: 0}
  m_GameObject: {fileID: 1514481875857408}
  m_Enabled: 1
  m_AgentTypeID: 0
  m_Radius: 0.5
  m_Speed: 3.5
  m_Acceleration: 8
  avoidancePriority: 50
  m_AngularSpeed: 120
  m_StoppingDistance: 0
  m_AutoTraverseOffMeshLink: 1
  m_AutoBraking: 1
  m_AutoRepath: 1
  m_Height: 2
  m_BaseOffset: 0
  m_WalkableMask: 4294967295
  m_ObstacleAvoidanceType: 4
--- !u!1 &1529970377729522
GameObject:
  m_ObjectHideFlags: 0
  m_CorrespondingSourceObject: {fileID: 0}
  m_PrefabInstance: {fileID: 0}
  m_PrefabAsset: {fileID: 0}
  serializedVersion: 6
  m_Component:
  - component: {fileID: 4907367357004816}
  m_Layer: 0
  m_Name: RotationHelper
  m_TagString: Untagged
  m_Icon: {fileID: 0}
  m_NavMeshLayer: 0
  m_StaticEditorFlags: 0
  m_IsActive: 1
--- !u!4 &4907367357004816
Transform:
  m_ObjectHideFlags: 0
  m_CorrespondingSourceObject: {fileID: 0}
  m_PrefabInstance: {fileID: 0}
  m_PrefabAsset: {fileID: 0}
  m_GameObject: {fileID: 1529970377729522}
  m_LocalRotation: {x: 0, y: 0, z: 0, w: 1}
  m_LocalPosition: {x: 0, y: 0, z: 0}
  m_LocalScale: {x: 1, y: 1, z: 1}
  m_ConstrainProportionsScale: 0
  m_Children:
  - {fileID: 4675472016388650}
  - {fileID: 4049620994032318}
  m_Father: {fileID: 4909805588602726}
  m_RootOrder: 0
  m_LocalEulerAnglesHint: {x: 0, y: 0, z: 0}
--- !u!1 &1553622972924214
GameObject:
  m_ObjectHideFlags: 0
  m_CorrespondingSourceObject: {fileID: 0}
  m_PrefabInstance: {fileID: 0}
  m_PrefabAsset: {fileID: 0}
  serializedVersion: 6
  m_Component:
  - component: {fileID: 4134897692948640}
  m_Layer: 0
  m_Name: joint18
  m_TagString: Untagged
  m_Icon: {fileID: 0}
  m_NavMeshLayer: 0
  m_StaticEditorFlags: 0
  m_IsActive: 1
--- !u!4 &4134897692948640
Transform:
  m_ObjectHideFlags: 0
  m_CorrespondingSourceObject: {fileID: 0}
  m_PrefabInstance: {fileID: 0}
  m_PrefabAsset: {fileID: 0}
  m_GameObject: {fileID: 1553622972924214}
  m_LocalRotation: {x: 0.85336775, y: 0.52119446, z: 0.0032735919, w: 0.010444533}
  m_LocalPosition: {x: -0.35080764, y: -0.13463813, z: 3.5527135e-16}
  m_LocalScale: {x: 1, y: 1, z: 1}
  m_ConstrainProportionsScale: 0
  m_Children:
  - {fileID: 4945629276260376}
  m_Father: {fileID: 4317017676463688}
  m_RootOrder: 0
  m_LocalEulerAnglesHint: {x: -1.7734676e-15, y: 179.99998, z: 105.428154}
--- !u!1 &1581016380648776
GameObject:
  m_ObjectHideFlags: 0
  m_CorrespondingSourceObject: {fileID: 0}
  m_PrefabInstance: {fileID: 0}
  m_PrefabAsset: {fileID: 0}
  serializedVersion: 6
  m_Component:
  - component: {fileID: 4141025503583432}
  m_Layer: 0
  m_Name: joint38
  m_TagString: Untagged
  m_Icon: {fileID: 0}
  m_NavMeshLayer: 0
  m_StaticEditorFlags: 0
  m_IsActive: 1
--- !u!4 &4141025503583432
Transform:
  m_ObjectHideFlags: 0
  m_CorrespondingSourceObject: {fileID: 0}
  m_PrefabInstance: {fileID: 0}
  m_PrefabAsset: {fileID: 0}
  m_GameObject: {fileID: 1581016380648776}
  m_LocalRotation: {x: -0.29985747, y: 0.6403792, z: 0.2526172, w: 0.6604427}
  m_LocalPosition: {x: 0.1651018, y: 0.0000005554953, z: 0}
  m_LocalScale: {x: 1, y: 1, z: 1}
  m_ConstrainProportionsScale: 0
  m_Children: []
  m_Father: {fileID: 4537885103700060}
  m_RootOrder: 0
  m_LocalEulerAnglesHint: {x: 0, y: 0, z: 0}
--- !u!1 &1601415073387878
GameObject:
  m_ObjectHideFlags: 0
  m_CorrespondingSourceObject: {fileID: 0}
  m_PrefabInstance: {fileID: 0}
  m_PrefabAsset: {fileID: 0}
  serializedVersion: 6
  m_Component:
  - component: {fileID: 4063519605448002}
  m_Layer: 0
  m_Name: joint33
  m_TagString: Untagged
  m_Icon: {fileID: 0}
  m_NavMeshLayer: 0
  m_StaticEditorFlags: 0
  m_IsActive: 1
--- !u!4 &4063519605448002
Transform:
  m_ObjectHideFlags: 0
  m_CorrespondingSourceObject: {fileID: 0}
  m_PrefabInstance: {fileID: 0}
  m_PrefabAsset: {fileID: 0}
  m_GameObject: {fileID: 1601415073387878}
  m_LocalRotation: {x: 0.8578518, y: 0.5137803, z: -0.003257982, w: -0.010462972}
  m_LocalPosition: {x: 0.3508106, y: 0.13464162, z: 2.1316282e-16}
  m_LocalScale: {x: 1, y: 1, z: 1}
  m_ConstrainProportionsScale: 0
  m_Children:
  - {fileID: 4326761234978304}
  m_Father: {fileID: 4565125897118404}
  m_RootOrder: 0
  m_LocalEulerAnglesHint: {x: -9.778594e-14, y: 47.152008, z: 113.13058}
--- !u!1 &1623499929711776
GameObject:
  m_ObjectHideFlags: 0
  m_CorrespondingSourceObject: {fileID: 0}
  m_PrefabInstance: {fileID: 0}
  m_PrefabAsset: {fileID: 0}
  serializedVersion: 6
  m_Component:
  - component: {fileID: 4820434575737206}
  m_Layer: 0
  m_Name: joint10
  m_TagString: Untagged
  m_Icon: {fileID: 0}
  m_NavMeshLayer: 0
  m_StaticEditorFlags: 0
  m_IsActive: 1
--- !u!4 &4820434575737206
Transform:
  m_ObjectHideFlags: 0
  m_CorrespondingSourceObject: {fileID: 0}
  m_PrefabInstance: {fileID: 0}
  m_PrefabAsset: {fileID: 0}
  m_GameObject: {fileID: 1623499929711776}
  m_LocalRotation: {x: 0.7172667, y: 0.6967988, z: 4.266662e-17, w: 4.3919916e-17}
  m_LocalPosition: {x: -0.31975752, y: 0, z: -0.10178971}
  m_LocalScale: {x: 1, y: 1, z: 1}
  m_ConstrainProportionsScale: 0
  m_Children:
  - {fileID: 4497989286664084}
  m_Father: {fileID: 4858219303601184}
  m_RootOrder: 0
  m_LocalEulerAnglesHint: {x: 6.0010967, y: -178.63148, z: 95.98884}
--- !u!1 &1638121179661078
GameObject:
  m_ObjectHideFlags: 0
  m_CorrespondingSourceObject: {fileID: 0}
  m_PrefabInstance: {fileID: 0}
  m_PrefabAsset: {fileID: 0}
  serializedVersion: 6
  m_Component:
  - component: {fileID: 4656475898395196}
  m_Layer: 0
  m_Name: joint5
  m_TagString: Untagged
  m_Icon: {fileID: 0}
  m_NavMeshLayer: 0
  m_StaticEditorFlags: 0
  m_IsActive: 1
--- !u!4 &4656475898395196
Transform:
  m_ObjectHideFlags: 0
  m_CorrespondingSourceObject: {fileID: 0}
  m_PrefabInstance: {fileID: 0}
  m_PrefabAsset: {fileID: 0}
  m_GameObject: {fileID: 1638121179661078}
  m_LocalRotation: {x: -0.00031336184, y: 0.011089524, z: 0.14844956, w: 0.98885775}
  m_LocalPosition: {x: -0.46459955, y: 0, z: 2.0094941e-16}
  m_LocalScale: {x: 1, y: 1, z: 1}
  m_ConstrainProportionsScale: 0
  m_Children:
  - {fileID: 4950265037820782}
  - {fileID: 4858219303601184}
  - {fileID: 4913537641031632}
  m_Father: {fileID: 4857046954529472}
  m_RootOrder: 0
  m_LocalEulerAnglesHint: {x: 0.824975, y: -0.36538646, z: 47.318924}
--- !u!1 &1645726269410366
GameObject:
  m_ObjectHideFlags: 0
  m_CorrespondingSourceObject: {fileID: 0}
  m_PrefabInstance: {fileID: 0}
  m_PrefabAsset: {fileID: 0}
  serializedVersion: 6
  m_Component:
  - component: {fileID: 4309454450331620}
  m_Layer: 0
  m_Name: joint2
  m_TagString: Untagged
  m_Icon: {fileID: 0}
  m_NavMeshLayer: 0
  m_StaticEditorFlags: 0
  m_IsActive: 1
--- !u!4 &4309454450331620
Transform:
  m_ObjectHideFlags: 0
  m_CorrespondingSourceObject: {fileID: 0}
  m_PrefabInstance: {fileID: 0}
  m_PrefabAsset: {fileID: 0}
  m_GameObject: {fileID: 1645726269410366}
  m_LocalRotation: {x: 0.00018069753, y: 0.011092479, z: 0.0040938747, w: 0.9999301}
  m_LocalPosition: {x: -0.38595262, y: 2.842171e-16, z: 1.713974e-16}
  m_LocalScale: {x: 1, y: 1, z: 1}
  m_ConstrainProportionsScale: 0
  m_Children:
  - {fileID: 4008792256613338}
  m_Father: {fileID: 4675472016388650}
  m_RootOrder: 0
  m_LocalEulerAnglesHint: {x: 0.7902914, y: -1.2918898, z: 3.479156}
--- !u!1 &1715270650738896
GameObject:
  m_ObjectHideFlags: 0
  m_CorrespondingSourceObject: {fileID: 0}
  m_PrefabInstance: {fileID: 0}
  m_PrefabAsset: {fileID: 0}
  serializedVersion: 6
  m_Component:
  - component: {fileID: 4825736707887608}
  m_Layer: 0
  m_Name: joint7
  m_TagString: Untagged
  m_Icon: {fileID: 0}
  m_NavMeshLayer: 0
  m_StaticEditorFlags: 0
  m_IsActive: 1
--- !u!4 &4825736707887608
Transform:
  m_ObjectHideFlags: 0
  m_CorrespondingSourceObject: {fileID: 0}
  m_PrefabInstance: {fileID: 0}
  m_PrefabAsset: {fileID: 0}
  m_GameObject: {fileID: 1715270650738896}
  m_LocalRotation: {x: 0, y: 0, z: 0.3295199, w: 0.94414866}
  m_LocalPosition: {x: -0.51907015, y: 5.684342e-16, z: 2.2979964e-16}
  m_LocalScale: {x: 1, y: 1, z: 1}
  m_ConstrainProportionsScale: 0
  m_Children:
  - {fileID: 4987148794697604}
  - {fileID: 4001690678641430}
  m_Father: {fileID: 4950265037820782}
  m_RootOrder: 0
  m_LocalEulerAnglesHint: {x: 0, y: 0, z: 0}
--- !u!1 &1728663228633280
GameObject:
  m_ObjectHideFlags: 0
  m_CorrespondingSourceObject: {fileID: 0}
  m_PrefabInstance: {fileID: 0}
  m_PrefabAsset: {fileID: 0}
  serializedVersion: 6
  m_Component:
  - component: {fileID: 4138218728695936}
  m_Layer: 0
  m_Name: joint24
  m_TagString: Untagged
  m_Icon: {fileID: 0}
  m_NavMeshLayer: 0
  m_StaticEditorFlags: 0
  m_IsActive: 1
--- !u!4 &4138218728695936
Transform:
  m_ObjectHideFlags: 0
  m_CorrespondingSourceObject: {fileID: 0}
  m_PrefabInstance: {fileID: 0}
  m_PrefabAsset: {fileID: 0}
  m_GameObject: {fileID: 1728663228633280}
  m_LocalRotation: {x: -0.29985747, y: 0.6403792, z: 0.2526172, w: 0.6604427}
  m_LocalPosition: {x: -0.16510142, y: -1.4210854e-16, z: -2.842171e-16}
  m_LocalScale: {x: 1, y: 1, z: 1}
  m_ConstrainProportionsScale: 0
  m_Children: []
  m_Father: {fileID: 4347767564114306}
  m_RootOrder: 0
  m_LocalEulerAnglesHint: {x: 0, y: 0, z: 0}
--- !u!1 &1732722350968484
GameObject:
  m_ObjectHideFlags: 0
  m_CorrespondingSourceObject: {fileID: 0}
  m_PrefabInstance: {fileID: 0}
  m_PrefabAsset: {fileID: 0}
  serializedVersion: 6
  m_Component:
  - component: {fileID: 4317017676463688}
  m_Layer: 0
  m_Name: joint17
  m_TagString: Untagged
  m_Icon: {fileID: 0}
  m_NavMeshLayer: 0
  m_StaticEditorFlags: 0
  m_IsActive: 1
--- !u!4 &4317017676463688
Transform:
  m_ObjectHideFlags: 0
  m_CorrespondingSourceObject: {fileID: 0}
  m_PrefabInstance: {fileID: 0}
  m_PrefabAsset: {fileID: 0}
  m_GameObject: {fileID: 1732722350968484}
  m_LocalRotation: {x: 0, y: 0, z: 0.36001638, w: 0.932946}
  m_LocalPosition: {x: -0.12664351, y: -0.21496549, z: -0.11336519}
  m_LocalScale: {x: 1, y: 1, z: 1}
  m_ConstrainProportionsScale: 0
  m_Children:
  - {fileID: 4134897692948640}
  m_Father: {fileID: 4811745237878376}
  m_RootOrder: 0
  m_LocalEulerAnglesHint: {x: 0.062021032, y: 1.8835092, z: 130.15648}
--- !u!1 &1782331138945764
GameObject:
  m_ObjectHideFlags: 0
  m_CorrespondingSourceObject: {fileID: 0}
  m_PrefabInstance: {fileID: 0}
  m_PrefabAsset: {fileID: 0}
  serializedVersion: 6
  m_Component:
  - component: {fileID: 4570263132665882}
  m_Layer: 0
  m_Name: joint36
  m_TagString: Untagged
  m_Icon: {fileID: 0}
  m_NavMeshLayer: 0
  m_StaticEditorFlags: 0
  m_IsActive: 1
--- !u!4 &4570263132665882
Transform:
  m_ObjectHideFlags: 0
  m_CorrespondingSourceObject: {fileID: 0}
  m_PrefabInstance: {fileID: 0}
  m_PrefabAsset: {fileID: 0}
  m_GameObject: {fileID: 1782331138945764}
  m_LocalRotation: {x: 0, y: -0, z: -0.16619597, w: 0.98609275}
  m_LocalPosition: {x: 0.3051905, y: -0.00000042870818, z: -7.105427e-17}
  m_LocalScale: {x: 1, y: 1, z: 1}
  m_ConstrainProportionsScale: 0
  m_Children: []
  m_Father: {fileID: 4817420652868502}
  m_RootOrder: 0
  m_LocalEulerAnglesHint: {x: 0, y: 0, z: -19.133434}
--- !u!1 &1784949538034904
GameObject:
  m_ObjectHideFlags: 0
  m_CorrespondingSourceObject: {fileID: 0}
  m_PrefabInstance: {fileID: 0}
  m_PrefabAsset: {fileID: 0}
  serializedVersion: 6
  m_Component:
  - component: {fileID: 4858219303601184}
  m_Layer: 0
  m_Name: joint9
  m_TagString: Untagged
  m_Icon: {fileID: 0}
  m_NavMeshLayer: 0
  m_StaticEditorFlags: 0
  m_IsActive: 1
--- !u!4 &4858219303601184
Transform:
  m_ObjectHideFlags: 0
  m_CorrespondingSourceObject: {fileID: 0}
  m_PrefabInstance: {fileID: 0}
  m_PrefabAsset: {fileID: 0}
  m_GameObject: {fileID: 1784949538034904}
  m_LocalRotation: {x: 0, y: 0, z: 0.16491573, w: 0.9863077}
  m_LocalPosition: {x: 0.1333961, y: -0.25870758, z: -0.23937234}
  m_LocalScale: {x: 1, y: 1, z: 1}
  m_ConstrainProportionsScale: 0
  m_Children:
  - {fileID: 4820434575737206}
  m_Father: {fileID: 4656475898395196}
  m_RootOrder: 1
  m_LocalEulerAnglesHint: {x: 0, y: 0, z: 18.984676}
--- !u!1 &1926289704137218
GameObject:
  m_ObjectHideFlags: 0
  m_CorrespondingSourceObject: {fileID: 0}
  m_PrefabInstance: {fileID: 0}
  m_PrefabAsset: {fileID: 0}
  serializedVersion: 6
  m_Component:
  - component: {fileID: 4537885103700060}
  m_Layer: 0
  m_Name: joint37
  m_TagString: Untagged
  m_Icon: {fileID: 0}
  m_NavMeshLayer: 0
  m_StaticEditorFlags: 0
  m_IsActive: 1
--- !u!4 &4537885103700060
Transform:
  m_ObjectHideFlags: 0
  m_CorrespondingSourceObject: {fileID: 0}
  m_PrefabInstance: {fileID: 0}
  m_PrefabAsset: {fileID: 0}
  m_GameObject: {fileID: 1926289704137218}
  m_LocalRotation: {x: 0.6403792, y: 0.29985747, z: 0.6604427, w: 0.2526172}
  m_LocalPosition: {x: -0.2614538, y: 0.15636753, z: 0.259506}
  m_LocalScale: {x: 1, y: 1, z: 1}
  m_ConstrainProportionsScale: 0
  m_Children:
  - {fileID: 4141025503583432}
  m_Father: {fileID: 4950265037820782}
  m_RootOrder: 2
  m_LocalEulerAnglesHint: {x: 0, y: 0, z: 0}
--- !u!1 &1935771704467960
GameObject:
  m_ObjectHideFlags: 0
  m_CorrespondingSourceObject: {fileID: 0}
  m_PrefabInstance: {fileID: 0}
  m_PrefabAsset: {fileID: 0}
  serializedVersion: 6
  m_Component:
  - component: {fileID: 4001690678641430}
  m_Layer: 0
  m_Name: joint39
  m_TagString: Untagged
  m_Icon: {fileID: 0}
  m_NavMeshLayer: 0
  m_StaticEditorFlags: 0
  m_IsActive: 1
--- !u!4 &4001690678641430
Transform:
  m_ObjectHideFlags: 0
  m_CorrespondingSourceObject: {fileID: 0}
  m_PrefabInstance: {fileID: 0}
  m_PrefabAsset: {fileID: 0}
  m_GameObject: {fileID: 1935771704467960}
  m_LocalRotation: {x: 0, y: -0, z: -0.3229004, w: 0.94643295}
  m_LocalPosition: {x: -0.17351738, y: -0.108383864, z: 3.7031592e-17}
  m_LocalScale: {x: 1, y: 1, z: 1}
  m_ConstrainProportionsScale: 0
  m_Children:
  - {fileID: 4061650158638598}
  m_Father: {fileID: 4825736707887608}
  m_RootOrder: 1
  m_LocalEulerAnglesHint: {x: 0, y: 0, z: 0}
--- !u!1 &1941046620706778
GameObject:
  m_ObjectHideFlags: 0
  m_CorrespondingSourceObject: {fileID: 0}
  m_PrefabInstance: {fileID: 0}
  m_PrefabAsset: {fileID: 0}
  serializedVersion: 6
  m_Component:
  - component: {fileID: 4890793436445384}
  m_Layer: 0
  m_Name: joint30
  m_TagString: Untagged
  m_Icon: {fileID: 0}
  m_NavMeshLayer: 0
  m_StaticEditorFlags: 0
  m_IsActive: 1
--- !u!4 &4890793436445384
Transform:
  m_ObjectHideFlags: 0
  m_CorrespondingSourceObject: {fileID: 0}
  m_PrefabInstance: {fileID: 0}
  m_PrefabAsset: {fileID: 0}
  m_GameObject: {fileID: 1941046620706778}
  m_LocalRotation: {x: 0.000000013072737, y: 3.946951e-10, z: 0.030178482, w: 0.99954456}
  m_LocalPosition: {x: 0.24567878, y: 0.00000070879145, z: -0.000000007044012}
  m_LocalScale: {x: 1, y: 1, z: 1}
  m_ConstrainProportionsScale: 0
  m_Children: []
  m_Father: {fileID: 4827099614428822}
  m_RootOrder: 0
  m_LocalEulerAnglesHint: {x: 0.0000011427892, y: 0.00000006906967, z: 3.4587245}
--- !u!1 &1951841273578042
GameObject:
  m_ObjectHideFlags: 0
  m_CorrespondingSourceObject: {fileID: 0}
  m_PrefabInstance: {fileID: 0}
  m_PrefabAsset: {fileID: 0}
  serializedVersion: 6
  m_Component:
  - component: {fileID: 4565125897118404}
  m_Layer: 0
  m_Name: joint32
  m_TagString: Untagged
  m_Icon: {fileID: 0}
  m_NavMeshLayer: 0
  m_StaticEditorFlags: 0
  m_IsActive: 1
--- !u!4 &4565125897118404
Transform:
  m_ObjectHideFlags: 0
  m_CorrespondingSourceObject: {fileID: 0}
  m_PrefabInstance: {fileID: 0}
  m_PrefabAsset: {fileID: 0}
  m_GameObject: {fileID: 1951841273578042}
  m_LocalRotation: {x: 0, y: 0, z: 0.36001638, w: 0.932946}
  m_LocalPosition: {x: 0.1266437, y: 0.21496166, z: 0.113366}
  m_LocalScale: {x: 1, y: 1, z: 1}
  m_ConstrainProportionsScale: 0
  m_Children:
  - {fileID: 4063519605448002}
  m_Father: {fileID: 4140923033130106}
  m_RootOrder: 0
  m_LocalEulerAnglesHint: {x: -0.3630101, y: -2.0350769, z: 136.00203}
--- !u!1 &1956074466286130
GameObject:
  m_ObjectHideFlags: 0
  m_CorrespondingSourceObject: {fileID: 0}
  m_PrefabInstance: {fileID: 0}
  m_PrefabAsset: {fileID: 0}
  serializedVersion: 6
  m_Component:
  - component: {fileID: 4111741565158630}
  m_Layer: 0
  m_Name: joint12
  m_TagString: Untagged
  m_Icon: {fileID: 0}
  m_NavMeshLayer: 0
  m_StaticEditorFlags: 0
  m_IsActive: 1
--- !u!4 &4111741565158630
Transform:
  m_ObjectHideFlags: 0
  m_CorrespondingSourceObject: {fileID: 0}
  m_PrefabInstance: {fileID: 0}
  m_PrefabAsset: {fileID: 0}
  m_GameObject: {fileID: 1956074466286130}
  m_LocalRotation: {x: 0.72887397, y: 0.68464786, z: 9.739927e-10, w: -9.148933e-10}
  m_LocalPosition: {x: -0.6245327, y: 5.684342e-16, z: -7.105427e-17}
  m_LocalScale: {x: 1, y: 1, z: 1}
  m_ConstrainProportionsScale: 0
  m_Children:
  - {fileID: 4313362520371510}
  m_Father: {fileID: 4497989286664084}
  m_RootOrder: 0
  m_LocalEulerAnglesHint: {x: -7.273201, y: 1.5001831, z: -150.53023}
--- !u!1 &1982849293350854
GameObject:
  m_ObjectHideFlags: 0
  m_CorrespondingSourceObject: {fileID: 0}
  m_PrefabInstance: {fileID: 0}
  m_PrefabAsset: {fileID: 0}
  serializedVersion: 6
  m_Component:
  - component: {fileID: 4987148794697604}
  m_Layer: 0
  m_Name: joint8
  m_TagString: Untagged
  m_Icon: {fileID: 0}
  m_NavMeshLayer: 0
  m_StaticEditorFlags: 0
  m_IsActive: 1
--- !u!4 &4987148794697604
Transform:
  m_ObjectHideFlags: 0
  m_CorrespondingSourceObject: {fileID: 0}
  m_PrefabInstance: {fileID: 0}
  m_PrefabAsset: {fileID: 0}
  m_GameObject: {fileID: 1982849293350854}
  m_LocalRotation: {x: -0.27059805, y: -0.6532815, z: -0.27059805, w: 0.6532815}
  m_LocalPosition: {x: -0.41931787, y: 0, z: 1.3250739e-16}
  m_LocalScale: {x: 1, y: 1, z: 1}
  m_ConstrainProportionsScale: 0
  m_Children: []
  m_Father: {fileID: 4825736707887608}
  m_RootOrder: 0
  m_LocalEulerAnglesHint: {x: 0, y: 0, z: 0}
--- !u!1 &1983916768027076
GameObject:
  m_ObjectHideFlags: 0
  m_CorrespondingSourceObject: {fileID: 0}
  m_PrefabInstance: {fileID: 0}
  m_PrefabAsset: {fileID: 0}
  serializedVersion: 6
  m_Component:
  - component: {fileID: 4950265037820782}
  m_Layer: 0
  m_Name: joint6
  m_TagString: Untagged
  m_Icon: {fileID: 0}
  m_NavMeshLayer: 0
  m_StaticEditorFlags: 0
  m_IsActive: 1
--- !u!4 &4950265037820782
Transform:
  m_ObjectHideFlags: 0
  m_CorrespondingSourceObject: {fileID: 0}
  m_PrefabInstance: {fileID: 0}
  m_PrefabAsset: {fileID: 0}
  m_GameObject: {fileID: 1983916768027076}
  m_LocalRotation: {x: 0.0050776354, y: 0.009863739, z: -0.00960922, w: 0.9998923}
  m_LocalPosition: {x: -0.3287742, y: -5.684342e-16, z: 1.34134e-16}
  m_LocalScale: {x: 1, y: 1, z: 1}
  m_ConstrainProportionsScale: 0
  m_Children:
  - {fileID: 4825736707887608}
  - {fileID: 4347767564114306}
  - {fileID: 4537885103700060}
  m_Father: {fileID: 4656475898395196}
  m_RootOrder: 0
  m_LocalEulerAnglesHint: {x: 4.89344, y: 17.110409, z: -12.471309}
--- !u!1 &1987677918726792
GameObject:
  m_ObjectHideFlags: 0
  m_CorrespondingSourceObject: {fileID: 0}
  m_PrefabInstance: {fileID: 0}
  m_PrefabAsset: {fileID: 0}
  serializedVersion: 6
  m_Component:
  - component: {fileID: 4072476778747308}
  m_Layer: 0
  m_Name: joint28
  m_TagString: Untagged
  m_Icon: {fileID: 0}
  m_NavMeshLayer: 0
  m_StaticEditorFlags: 0
  m_IsActive: 1
--- !u!4 &4072476778747308
Transform:
  m_ObjectHideFlags: 0
  m_CorrespondingSourceObject: {fileID: 0}
  m_PrefabInstance: {fileID: 0}
  m_PrefabAsset: {fileID: 0}
  m_GameObject: {fileID: 1987677918726792}
  m_LocalRotation: {x: 0.7802817, y: 0.6254282, z: 0.0000000010487724, w: -8.406345e-10}
  m_LocalPosition: {x: 0.62453294, y: -0.000000316506, z: -7.105427e-17}
  m_LocalScale: {x: 1, y: 1, z: 1}
  m_ConstrainProportionsScale: 0
  m_Children:
  - {fileID: 4827099614428822}
  m_Father: {fileID: 4684730704264996}
  m_RootOrder: 0
  m_LocalEulerAnglesHint: {x: 5.9857206, y: 121.20128, z: -158.79024}
