%YAML 1.1
%TAG !u! tag:unity3d.com,2011:
--- !u!1 &1015775576910894
GameObject:
  m_ObjectHideFlags: 0
  m_CorrespondingSourceObject: {fileID: 0}
  m_PrefabInstance: {fileID: 0}
  m_PrefabAsset: {fileID: 0}
  serializedVersion: 6
  m_Component:
  - component: {fileID: 4822152766462014}
  m_Layer: 0
  m_Name: backToes1_R
  m_TagString: Untagged
  m_Icon: {fileID: 0}
  m_NavMeshLayer: 0
  m_StaticEditorFlags: 0
  m_IsActive: 1
--- !u!4 &4822152766462014
Transform:
  m_ObjectHideFlags: 0
  m_CorrespondingSourceObject: {fileID: 0}
  m_PrefabInstance: {fileID: 0}
  m_PrefabAsset: {fileID: 0}
  m_GameObject: {fileID: 1015775576910894}
  m_LocalRotation: {x: 0, y: 0, z: -0.49389404, w: 0.8695221}
  m_LocalPosition: {x: -0.16718012, y: 1.4210854e-16, z: -5.140323e-10}
  m_LocalScale: {x: 1, y: 1, z: 1}
  m_ConstrainProportionsScale: 0
  m_Children:
  - {fileID: 4013026244850300}
  m_Father: {fileID: 4431739537752856}
  m_RootOrder: 0
  m_LocalEulerAnglesHint: {x: 0, y: 0, z: -32.46363}
--- !u!1 &1041375636141374
GameObject:
  m_ObjectHideFlags: 0
  m_CorrespondingSourceObject: {fileID: 0}
  m_PrefabInstance: {fileID: 0}
  m_PrefabAsset: {fileID: 0}
  serializedVersion: 6
  m_Component:
  - component: {fileID: 4115698824095448}
  m_Layer: 0
  m_Name: Tail2_M
  m_TagString: Untagged
  m_Icon: {fileID: 0}
  m_NavMeshLayer: 0
  m_StaticEditorFlags: 0
  m_IsActive: 1
--- !u!4 &4115698824095448
Transform:
  m_ObjectHideFlags: 0
  m_CorrespondingSourceObject: {fileID: 0}
  m_PrefabInstance: {fileID: 0}
  m_PrefabAsset: {fileID: 0}
  m_GameObject: {fileID: 1041375636141374}
  m_LocalRotation: {x: 0, y: 0, z: -0.048271462, w: 0.99883425}
  m_LocalPosition: {x: -0.10293286, y: 7.105427e-16, z: 1.1663902e-15}
  m_LocalScale: {x: 1, y: 1, z: 1}
  m_ConstrainProportionsScale: 0
  m_Children:
  - {fileID: 4877479612309588}
  m_Father: {fileID: 4234198438741708}
  m_RootOrder: 0
  m_LocalEulerAnglesHint: {x: -0, y: 0, z: 0.66339505}
--- !u!1 &1056979773184028
GameObject:
  m_ObjectHideFlags: 0
  m_CorrespondingSourceObject: {fileID: 0}
  m_PrefabInstance: {fileID: 0}
  m_PrefabAsset: {fileID: 0}
  serializedVersion: 6
  m_Component:
  - component: {fileID: 4840642577230284}
  m_Layer: 0
  m_Name: frontToes4_R
  m_TagString: Untagged
  m_Icon: {fileID: 0}
  m_NavMeshLayer: 0
  m_StaticEditorFlags: 0
  m_IsActive: 1
--- !u!4 &4840642577230284
Transform:
  m_ObjectHideFlags: 0
  m_CorrespondingSourceObject: {fileID: 0}
  m_PrefabInstance: {fileID: 0}
  m_PrefabAsset: {fileID: 0}
  m_GameObject: {fileID: 1056979773184028}
  m_LocalRotation: {x: 0, y: -0, z: -0, w: 1}
  m_LocalPosition: {x: -0.05158776, y: -2.6645352e-17, z: 2.5401901e-14}
  m_LocalScale: {x: 1, y: 1, z: 1}
  m_ConstrainProportionsScale: 0
  m_Children: []
  m_Father: {fileID: 4327699400586450}
  m_RootOrder: 0
  m_LocalEulerAnglesHint: {x: 0, y: 0, z: 0}
--- !u!1 &1075956666097424
GameObject:
  m_ObjectHideFlags: 0
  m_CorrespondingSourceObject: {fileID: 0}
  m_PrefabInstance: {fileID: 0}
  m_PrefabAsset: {fileID: 0}
  serializedVersion: 6
  m_Component:
  - component: {fileID: 4538582769647686}
  m_Layer: 0
  m_Name: backHip_L
  m_TagString: Untagged
  m_Icon: {fileID: 0}
  m_NavMeshLayer: 0
  m_StaticEditorFlags: 0
  m_IsActive: 1
--- !u!4 &4538582769647686
Transform:
  m_ObjectHideFlags: 0
  m_CorrespondingSourceObject: {fileID: 0}
  m_PrefabInstance: {fileID: 0}
  m_PrefabAsset: {fileID: 0}
  m_GameObject: {fileID: 1075956666097424}
  m_LocalRotation: {x: 0.42555583, y: 0.9049322, z: -0.000000010486851, w: -0.0000000049315805}
  m_LocalPosition: {x: 0.074457176, y: 0.070471406, z: 0.07595272}
  m_LocalScale: {x: 1, y: 1, z: 1}
  m_ConstrainProportionsScale: 0
  m_Children:
  - {fileID: 4714233693066908}
  m_Father: {fileID: 4527138438326980}
  m_RootOrder: 0
  m_LocalEulerAnglesHint: {x: -24.894045, y: -163.70798, z: 83.385735}
--- !u!1 &1083342686925224
GameObject:
  m_ObjectHideFlags: 0
  m_CorrespondingSourceObject: {fileID: 0}
  m_PrefabInstance: {fileID: 0}
  m_PrefabAsset: {fileID: 0}
  serializedVersion: 6
  m_Component:
  - component: {fileID: 4431739537752856}
  m_Layer: 0
  m_Name: backAnkle_R
  m_TagString: Untagged
  m_Icon: {fileID: 0}
  m_NavMeshLayer: 0
  m_StaticEditorFlags: 0
  m_IsActive: 1
--- !u!4 &4431739537752856
Transform:
  m_ObjectHideFlags: 0
  m_CorrespondingSourceObject: {fileID: 0}
  m_PrefabInstance: {fileID: 0}
  m_PrefabAsset: {fileID: 0}
  m_GameObject: {fileID: 1083342686925224}
  m_LocalRotation: {x: -0.0000000185137, y: -0.000000084106766, z: 0.2949024, w: 0.9555274}
  m_LocalPosition: {x: -0.13597322, y: -1.4210854e-16, z: 2.469136e-15}
  m_LocalScale: {x: 1, y: 1, z: 1}
  m_ConstrainProportionsScale: 0
  m_Children:
  - {fileID: 4822152766462014}
  m_Father: {fileID: 4913799112826416}
  m_RootOrder: 0
  m_LocalEulerAnglesHint: {x: -0.0000002444678, y: -0.0000051953184, z: -39.72731}
--- !u!1 &1088109286703086
GameObject:
  m_ObjectHideFlags: 0
  m_CorrespondingSourceObject: {fileID: 0}
  m_PrefabInstance: {fileID: 0}
  m_PrefabAsset: {fileID: 0}
  serializedVersion: 6
  m_Component:
  - component: {fileID: 4673220615300062}
  m_Layer: 0
  m_Name: Jaw_M
  m_TagString: Untagged
  m_Icon: {fileID: 0}
  m_NavMeshLayer: 0
  m_StaticEditorFlags: 0
  m_IsActive: 1
--- !u!4 &4673220615300062
Transform:
  m_ObjectHideFlags: 0
  m_CorrespondingSourceObject: {fileID: 0}
  m_PrefabInstance: {fileID: 0}
  m_PrefabAsset: {fileID: 0}
  m_GameObject: {fileID: 1088109286703086}
  m_LocalRotation: {x: 0, y: 0, z: 0.39110875, w: 0.92034453}
  m_LocalPosition: {x: -0.04438532, y: 1.4210854e-15, z: -1.6859149e-14}
  m_LocalScale: {x: 1, y: 1, z: 1}
  m_ConstrainProportionsScale: 0
  m_Children:
  - {fileID: 4176233529577076}
  m_Father: {fileID: 4124410596085224}
  m_RootOrder: 0
  m_LocalEulerAnglesHint: {x: 0, y: 0, z: 72.311195}
--- !u!1 &1112006414107960
GameObject:
  m_ObjectHideFlags: 0
  m_CorrespondingSourceObject: {fileID: 0}
  m_PrefabInstance: {fileID: 0}
  m_PrefabAsset: {fileID: 0}
  serializedVersion: 6
  m_Component:
  - component: {fileID: 4158260024392618}
  m_Layer: 0
  m_Name: frontToes1_L
  m_TagString: Untagged
  m_Icon: {fileID: 0}
  m_NavMeshLayer: 0
  m_StaticEditorFlags: 0
  m_IsActive: 1
--- !u!4 &4158260024392618
Transform:
  m_ObjectHideFlags: 0
  m_CorrespondingSourceObject: {fileID: 0}
  m_PrefabInstance: {fileID: 0}
  m_PrefabAsset: {fileID: 0}
  m_GameObject: {fileID: 1112006414107960}
  m_LocalRotation: {x: -0.000000014186427, y: 0.0000000030611629, z: -0.21092644, w: 0.9775019}
  m_LocalPosition: {x: 0.10986165, y: 2.1316282e-16, z: -4.0589754e-14}
  m_LocalScale: {x: 1, y: 1, z: 1}
  m_ConstrainProportionsScale: 0
  m_Children:
  - {fileID: 4199269753715642}
  m_Father: {fileID: 4143398627211788}
  m_RootOrder: 0
  m_LocalEulerAnglesHint: {x: 0, y: 0, z: -24.3533}
--- !u!1 &1142241160365390
GameObject:
  m_ObjectHideFlags: 0
  m_CorrespondingSourceObject: {fileID: 0}
  m_PrefabInstance: {fileID: 0}
  m_PrefabAsset: {fileID: 0}
  serializedVersion: 6
  m_Component:
  - component: {fileID: 4121375961911336}
  m_Layer: 0
  m_Name: backAnkle_L
  m_TagString: Untagged
  m_Icon: {fileID: 0}
  m_NavMeshLayer: 0
  m_StaticEditorFlags: 0
  m_IsActive: 1
--- !u!4 &4121375961911336
Transform:
  m_ObjectHideFlags: 0
  m_CorrespondingSourceObject: {fileID: 0}
  m_PrefabInstance: {fileID: 0}
  m_PrefabAsset: {fileID: 0}
  m_GameObject: {fileID: 1142241160365390}
  m_LocalRotation: {x: 0.000000031473167, y: 0.000000009713494, z: 0.2949024, w: 0.9555274}
  m_LocalPosition: {x: 0.13597322, y: 3.5527136e-17, z: 5.062617e-16}
  m_LocalScale: {x: 1, y: 1, z: 1}
  m_ConstrainProportionsScale: 0
  m_Children:
  - {fileID: 4526275285224658}
  m_Father: {fileID: 4714233693066908}
  m_RootOrder: 0
  m_LocalEulerAnglesHint: {x: 0.0000034412565, y: 0.000004398457, z: -5.4955993}
--- !u!1 &1143416305172380
GameObject:
  m_ObjectHideFlags: 0
  m_CorrespondingSourceObject: {fileID: 0}
  m_PrefabInstance: {fileID: 0}
  m_PrefabAsset: {fileID: 0}
  serializedVersion: 6
  m_Component:
  - component: {fileID: 4019539519368570}
  m_Layer: 0
  m_Name: Neck_M
  m_TagString: Untagged
  m_Icon: {fileID: 0}
  m_NavMeshLayer: 0
  m_StaticEditorFlags: 0
  m_IsActive: 1
--- !u!4 &4019539519368570
Transform:
  m_ObjectHideFlags: 0
  m_CorrespondingSourceObject: {fileID: 0}
  m_PrefabInstance: {fileID: 0}
  m_PrefabAsset: {fileID: 0}
  m_GameObject: {fileID: 1143416305172380}
  m_LocalRotation: {x: 0, y: 0, z: 0.55371124, w: 0.8327088}
  m_LocalPosition: {x: -0.12845942, y: -1.1368684e-15, z: -3.3241293e-14}
  m_LocalScale: {x: 1, y: 1, z: 1}
  m_ConstrainProportionsScale: 0
  m_Children:
  - {fileID: 4597854386979980}
  m_Father: {fileID: 4862098826854998}
  m_RootOrder: 2
  m_LocalEulerAnglesHint: {x: 0, y: 0, z: 41.035233}
--- !u!1 &1159856943898638
GameObject:
  m_ObjectHideFlags: 0
  m_CorrespondingSourceObject: {fileID: 0}
  m_PrefabInstance: {fileID: 0}
  m_PrefabAsset: {fileID: 0}
  serializedVersion: 6
  m_Component:
  - component: {fileID: 4862098826854998}
  m_Layer: 0
  m_Name: Chest_M
  m_TagString: Untagged
  m_Icon: {fileID: 0}
  m_NavMeshLayer: 0
  m_StaticEditorFlags: 0
  m_IsActive: 1
--- !u!4 &4862098826854998
Transform:
  m_ObjectHideFlags: 0
  m_CorrespondingSourceObject: {fileID: 0}
  m_PrefabInstance: {fileID: 0}
  m_PrefabAsset: {fileID: 0}
  m_GameObject: {fileID: 1159856943898638}
  m_LocalRotation: {x: 0, y: 0, z: -0.15283847, w: 0.9882512}
  m_LocalPosition: {x: -0.047547262, y: 1.065814e-15, z: -8.219829e-15}
  m_LocalScale: {x: 1, y: 1, z: 1}
  m_ConstrainProportionsScale: 0
  m_Children:
  - {fileID: 4034138402657994}
  - {fileID: 4077390425092538}
  - {fileID: 4019539519368570}
  m_Father: {fileID: 4094376865362966}
  m_RootOrder: 0
  m_LocalEulerAnglesHint: {x: 0.40147886, y: 1.5636635, z: -14.3964}
--- !u!1 &1163535892213394
GameObject:
  m_ObjectHideFlags: 0
  m_CorrespondingSourceObject: {fileID: 0}
  m_PrefabInstance: {fileID: 0}
  m_PrefabAsset: {fileID: 0}
  serializedVersion: 6
  m_Component:
  - component: {fileID: 4714233693066908}
  m_Layer: 0
  m_Name: backKnee_L
  m_TagString: Untagged
  m_Icon: {fileID: 0}
  m_NavMeshLayer: 0
  m_StaticEditorFlags: 0
  m_IsActive: 1
--- !u!4 &4714233693066908
Transform:
  m_ObjectHideFlags: 0
  m_CorrespondingSourceObject: {fileID: 0}
  m_PrefabInstance: {fileID: 0}
  m_PrefabAsset: {fileID: 0}
  m_GameObject: {fileID: 1163535892213394}
  m_LocalRotation: {x: 0, y: 0, z: 0.5383709, w: 0.842708}
  m_LocalPosition: {x: 0.14244239, y: -1.0480505e-15, z: -2.0605739e-15}
  m_LocalScale: {x: 1, y: 1, z: 1}
  m_ConstrainProportionsScale: 0
  m_Children:
  - {fileID: 4121375961911336}
  m_Father: {fileID: 4538582769647686}
  m_RootOrder: 0
  m_LocalEulerAnglesHint: {x: 0, y: 0, z: 77.016914}
--- !u!1 &1165892499734168
GameObject:
  m_ObjectHideFlags: 0
  m_CorrespondingSourceObject: {fileID: 0}
  m_PrefabInstance: {fileID: 0}
  m_PrefabAsset: {fileID: 0}
  serializedVersion: 6
  m_Component:
  - component: {fileID: 4901085123273672}
  m_Layer: 0
  m_Name: backHip_R
  m_TagString: Untagged
  m_Icon: {fileID: 0}
  m_NavMeshLayer: 0
  m_StaticEditorFlags: 0
  m_IsActive: 1
--- !u!4 &4901085123273672
Transform:
  m_ObjectHideFlags: 0
  m_CorrespondingSourceObject: {fileID: 0}
  m_PrefabInstance: {fileID: 0}
  m_PrefabAsset: {fileID: 0}
  m_GameObject: {fileID: 1165892499734168}
  m_LocalRotation: {x: 0.9049322, y: -0.42555583, z: 0.0000000090528625, w: 0.000000047317624}
  m_LocalPosition: {x: 0.074457176, y: 0.070471406, z: -0.07595272}
  m_LocalScale: {x: 1, y: 1, z: 1}
  m_ConstrainProportionsScale: 0
  m_Children:
  - {fileID: 4913799112826416}
  m_Father: {fileID: 4527138438326980}
  m_RootOrder: 1
  m_LocalEulerAnglesHint: {x: -1.8914217, y: 169.49786, z: -150.87137}
--- !u!1 &1206288095452438
GameObject:
  m_ObjectHideFlags: 0
  m_CorrespondingSourceObject: {fileID: 0}
  m_PrefabInstance: {fileID: 0}
  m_PrefabAsset: {fileID: 0}
  serializedVersion: 6
  m_Component:
  - component: {fileID: 4853161833948474}
  - component: {fileID: 95428417968735458}
  - component: {fileID: 143513350182151324}
  - component: {fileID: 114965423073504876}
  - component: {fileID: 195711384035179578}
  m_Layer: 0
  m_Name: Dog
  m_TagString: Untagged
  m_Icon: {fileID: 0}
  m_NavMeshLayer: 0
  m_StaticEditorFlags: 0
  m_IsActive: 1
--- !u!4 &4853161833948474
Transform:
  m_ObjectHideFlags: 0
  m_CorrespondingSourceObject: {fileID: 0}
  m_PrefabInstance: {fileID: 0}
  m_PrefabAsset: {fileID: 0}
  m_GameObject: {fileID: 1206288095452438}
  m_LocalRotation: {x: 0, y: 0, z: 0, w: 1}
  m_LocalPosition: {x: 0, y: 0, z: 0}
  m_LocalScale: {x: 0.05, y: 0.05, z: 0.05}
  m_ConstrainProportionsScale: 0
  m_Children:
  - {fileID: 4839961340271822}
  - {fileID: 4605800479268754}
  m_Father: {fileID: 0}
  m_RootOrder: 0
  m_LocalEulerAnglesHint: {x: 0, y: 0, z: 0}
--- !u!95 &95428417968735458
Animator:
  serializedVersion: 4
  m_ObjectHideFlags: 0
  m_CorrespondingSourceObject: {fileID: 0}
  m_PrefabInstance: {fileID: 0}
  m_PrefabAsset: {fileID: 0}
  m_GameObject: {fileID: 1206288095452438}
  m_Enabled: 1
  m_Avatar: {fileID: 9000000, guid: 1a3a8dc36996a421ebbfb78979a9eaf2, type: 3}
  m_Controller: {fileID: 9100000, guid: 1c2f7a16c4af6ce4a84946f558256811, type: 2}
  m_CullingMode: 1
  m_UpdateMode: 0
  m_ApplyRootMotion: 0
  m_LinearVelocityBlending: 0
  m_StabilizeFeet: 0
  m_WarningMessage: 
  m_HasTransformHierarchy: 1
  m_AllowConstantClipSamplingOptimization: 1
  m_KeepAnimatorControllerStateOnDisable: 0
--- !u!143 &143513350182151324
CharacterController:
  m_ObjectHideFlags: 0
  m_CorrespondingSourceObject: {fileID: 0}
  m_PrefabInstance: {fileID: 0}
  m_PrefabAsset: {fileID: 0}
  m_GameObject: {fileID: 1206288095452438}
  m_Material: {fileID: 0}
  m_IsTrigger: 0
  m_Enabled: 1
  serializedVersion: 2
  m_Height: 2
  m_Radius: 0.5
  m_SlopeLimit: 45
  m_StepOffset: 0.3
  m_SkinWidth: 0.08
  m_MinMoveDistance: 0.001
  m_Center: {x: 0, y: 1.1, z: 0}
--- !u!114 &114965423073504876
MonoBehaviour:
  m_ObjectHideFlags: 0
  m_CorrespondingSourceObject: {fileID: 0}
  m_PrefabInstance: {fileID: 0}
  m_PrefabAsset: {fileID: 0}
  m_GameObject: {fileID: 1206288095452438}
  m_Enabled: 1
  m_EditorHideFlags: 0
  m_Script: {fileID: 11500000, guid: 36003be02bd7fc54db18675085e2ab6f, type: 3}
  m_Name: 
  m_EditorClassIdentifier: 
  idleStates:
  - stateName: isBarking
    animationBool: isBarking
    minStateTime: 1
    maxStateTime: 6
    stateWeight: 7
  - stateName: isSitting
    animationBool: isSitting
    minStateTime: 1
    maxStateTime: 4
    stateWeight: 5
  movementStates:
  - stateName: Walking
    animationBool: isWalking
    maxStateTime: 100
    moveSpeed: 5
    turnSpeed: 150
  - stateName: Running
    animationBool: isRunning
    maxStateTime: 1
    moveSpeed: 6
    turnSpeed: 150
  attackingStates: []
  deathStates:
  - stateName: Sit
    animationBool: isSitting
  species: Chihuahua
  stats: {fileID: 11400000, guid: 91ff9525a96dadf46b6ed6d11b429824, type: 2}
  wanderZone: 16.71
  awareness: 30
  scent: 30
  constainedToWanderZone: 0
  nonAgressiveTowards: []
  matchSurfaceRotation: 0
  surfaceRotationSpeed: 2
  logChanges: 0
  showGizmos: 0
  drawWanderRange: 1
  drawScentRange: 1
  drawAwarenessRange: 1
  deathEvent:
    m_PersistentCalls:
      m_Calls: []
  attackingEvent:
    m_PersistentCalls:
      m_Calls: []
  idleEvent:
    m_PersistentCalls:
      m_Calls: []
  movementEvent:
    m_PersistentCalls:
      m_Calls: []
  CurrentState: 0
--- !u!195 &195711384035179578
NavMeshAgent:
  m_ObjectHideFlags: 0
  m_CorrespondingSourceObject: {fileID: 0}
  m_PrefabInstance: {fileID: 0}
  m_PrefabAsset: {fileID: 0}
  m_GameObject: {fileID: 1206288095452438}
  m_Enabled: 1
  m_AgentTypeID: 0
  m_Radius: 0.5
  m_Speed: 3.5
  m_Acceleration: 8
  avoidancePriority: 50
  m_AngularSpeed: 120
  m_StoppingDistance: 0
  m_AutoTraverseOffMeshLink: 1
  m_AutoBraking: 1
  m_AutoRepath: 1
  m_Height: 2
  m_BaseOffset: 0
  m_WalkableMask: 4294967295
  m_ObstacleAvoidanceType: 4
--- !u!1 &1227004588433028
GameObject:
  m_ObjectHideFlags: 0
  m_CorrespondingSourceObject: {fileID: 0}
  m_PrefabInstance: {fileID: 0}
  m_PrefabAsset: {fileID: 0}
  serializedVersion: 6
  m_Component:
  - component: {fileID: 4067696840198670}
  m_Layer: 0
  m_Name: joint1_L
  m_TagString: Untagged
  m_Icon: {fileID: 0}
  m_NavMeshLayer: 0
  m_StaticEditorFlags: 0
  m_IsActive: 1
--- !u!4 &4067696840198670
Transform:
  m_ObjectHideFlags: 0
  m_CorrespondingSourceObject: {fileID: 0}
  m_PrefabInstance: {fileID: 0}
  m_PrefabAsset: {fileID: 0}
  m_GameObject: {fileID: 1227004588433028}
  m_LocalRotation: {x: 0.44894272, y: 0.8324969, z: 0.026127301, w: -0.32359964}
  m_LocalPosition: {x: 0.052550238, y: -0.05042565, z: 0.05925392}
  m_LocalScale: {x: 1, y: 1, z: 1}
  m_ConstrainProportionsScale: 0
  m_Children:
  - {fileID: 4725020109321686}
  m_Father: {fileID: 4124410596085224}
  m_RootOrder: 1
  m_LocalEulerAnglesHint: {x: 18.599997, y: -3.4722266, z: 95.470146}
--- !u!1 &1233889147314880
GameObject:
  m_ObjectHideFlags: 0
  m_CorrespondingSourceObject: {fileID: 0}
  m_PrefabInstance: {fileID: 0}
  m_PrefabAsset: {fileID: 0}
  serializedVersion: 6
  m_Component:
  - component: {fileID: 4913799112826416}
  m_Layer: 0
  m_Name: backKnee_R
  m_TagString: Untagged
  m_Icon: {fileID: 0}
  m_NavMeshLayer: 0
  m_StaticEditorFlags: 0
  m_IsActive: 1
--- !u!4 &4913799112826416
Transform:
  m_ObjectHideFlags: 0
  m_CorrespondingSourceObject: {fileID: 0}
  m_PrefabInstance: {fileID: 0}
  m_PrefabAsset: {fileID: 0}
  m_GameObject: {fileID: 1233889147314880}
  m_LocalRotation: {x: 0, y: 0, z: 0.5383709, w: 0.842708}
  m_LocalPosition: {x: -0.14244239, y: 1.2256862e-15, z: 8.490985e-15}
  m_LocalScale: {x: 1, y: 1, z: 1}
  m_ConstrainProportionsScale: 0
  m_Children:
  - {fileID: 4431739537752856}
  m_Father: {fileID: 4901085123273672}
  m_RootOrder: 0
  m_LocalEulerAnglesHint: {x: 0, y: 0, z: 91.45367}
--- !u!1 &1236351585629904
GameObject:
  m_ObjectHideFlags: 0
  m_CorrespondingSourceObject: {fileID: 0}
  m_PrefabInstance: {fileID: 0}
  m_PrefabAsset: {fileID: 0}
  serializedVersion: 6
  m_Component:
  - component: {fileID: 4415864180176942}
  m_Layer: 0
  m_Name: DeformationSystem
  m_TagString: Untagged
  m_Icon: {fileID: 0}
  m_NavMeshLayer: 0
  m_StaticEditorFlags: 0
  m_IsActive: 1
--- !u!4 &4415864180176942
Transform:
  m_ObjectHideFlags: 0
  m_CorrespondingSourceObject: {fileID: 0}
  m_PrefabInstance: {fileID: 0}
  m_PrefabAsset: {fileID: 0}
  m_GameObject: {fileID: 1236351585629904}
  m_LocalRotation: {x: 0, y: -0, z: -0, w: 1}
  m_LocalPosition: {x: -0, y: 0, z: 0}
  m_LocalScale: {x: 1, y: 1, z: 1}
  m_ConstrainProportionsScale: 0
  m_Children:
  - {fileID: 4527138438326980}
  m_Father: {fileID: 4605800479268754}
  m_RootOrder: 0
  m_LocalEulerAnglesHint: {x: 0, y: 0, z: 0}
--- !u!1 &1241714667217374
GameObject:
  m_ObjectHideFlags: 0
  m_CorrespondingSourceObject: {fileID: 0}
  m_PrefabInstance: {fileID: 0}
  m_PrefabAsset: {fileID: 0}
  serializedVersion: 6
  m_Component:
  - component: {fileID: 4732282588181654}
  m_Layer: 0
  m_Name: RootPart2_M
  m_TagString: Untagged
  m_Icon: {fileID: 0}
  m_NavMeshLayer: 0
  m_StaticEditorFlags: 0
  m_IsActive: 1
--- !u!4 &4732282588181654
Transform:
  m_ObjectHideFlags: 0
  m_CorrespondingSourceObject: {fileID: 0}
  m_PrefabInstance: {fileID: 0}
  m_PrefabAsset: {fileID: 0}
  m_GameObject: {fileID: 1241714667217374}
  m_LocalRotation: {x: 0, y: -0, z: -0, w: 1}
  m_LocalPosition: {x: -0.043351874, y: -2.842171e-16, z: -1.4741599e-15}
  m_LocalScale: {x: 1, y: 1, z: 1}
  m_ConstrainProportionsScale: 0
  m_Children:
  - {fileID: 4585745648945840}
  m_Father: {fileID: 4691912239584874}
  m_RootOrder: 0
  m_LocalEulerAnglesHint: {x: -0.09504215, y: -2.8517208, z: -5.435359}
--- !u!1 &1265768189798536
GameObject:
  m_ObjectHideFlags: 0
  m_CorrespondingSourceObject: {fileID: 0}
  m_PrefabInstance: {fileID: 0}
  m_PrefabAsset: {fileID: 0}
  serializedVersion: 6
  m_Component:
  - component: {fileID: 4043926350795168}
  m_Layer: 0
  m_Name: backToes3_R
  m_TagString: Untagged
  m_Icon: {fileID: 0}
  m_NavMeshLayer: 0
  m_StaticEditorFlags: 0
  m_IsActive: 1
--- !u!4 &4043926350795168
Transform:
  m_ObjectHideFlags: 0
  m_CorrespondingSourceObject: {fileID: 0}
  m_PrefabInstance: {fileID: 0}
  m_PrefabAsset: {fileID: 0}
  m_GameObject: {fileID: 1265768189798536}
  m_LocalRotation: {x: -0.000000039526263, y: -0.0000000047704343, z: -0.16991363, w: 0.98545897}
  m_LocalPosition: {x: -0.023196736, y: -6.110667e-15, z: 8.490985e-15}
  m_LocalScale: {x: 1, y: 1, z: 1}
  m_ConstrainProportionsScale: 0
  m_Children:
  - {fileID: 4602147680315088}
  m_Father: {fileID: 4013026244850300}
  m_RootOrder: 0
  m_LocalEulerAnglesHint: {x: -5.5057154, y: -4.2185225, z: -27.258257}
--- !u!1 &1285070764372382
GameObject:
  m_ObjectHideFlags: 0
  m_CorrespondingSourceObject: {fileID: 0}
  m_PrefabInstance: {fileID: 0}
  m_PrefabAsset: {fileID: 0}
  serializedVersion: 6
  m_Component:
  - component: {fileID: 4527138438326980}
  m_Layer: 0
  m_Name: Root_M
  m_TagString: Untagged
  m_Icon: {fileID: 0}
  m_NavMeshLayer: 0
  m_StaticEditorFlags: 0
  m_IsActive: 1
--- !u!4 &4527138438326980
Transform:
  m_ObjectHideFlags: 0
  m_CorrespondingSourceObject: {fileID: 0}
  m_PrefabInstance: {fileID: 0}
  m_PrefabAsset: {fileID: 0}
  m_GameObject: {fileID: 1285070764372382}
  m_LocalRotation: {x: -0.7068971, y: -0.017219773, z: 0.7068971, w: 0.017219773}
  m_LocalPosition: {x: -1.5885372e-16, y: 0.5401561, z: -0.14834717}
  m_LocalScale: {x: 1, y: 1, z: 1}
  m_ConstrainProportionsScale: 0
  m_Children:
  - {fileID: 4538582769647686}
  - {fileID: 4901085123273672}
  - {fileID: 4691912239584874}
  - {fileID: 4253642524836440}
  m_Father: {fileID: 4415864180176942}
  m_RootOrder: 0
  m_LocalEulerAnglesHint: {x: -0.33708292, y: -93.94766, z: -179.62767}
--- !u!1 &1354797277814326
GameObject:
  m_ObjectHideFlags: 0
  m_CorrespondingSourceObject: {fileID: 0}
  m_PrefabInstance: {fileID: 0}
  m_PrefabAsset: {fileID: 0}
  serializedVersion: 6
  m_Component:
  - component: {fileID: 4892734007866452}
  m_Layer: 0
  m_Name: joint3_R
  m_TagString: Untagged
  m_Icon: {fileID: 0}
  m_NavMeshLayer: 0
  m_StaticEditorFlags: 0
  m_IsActive: 1
--- !u!4 &4892734007866452
Transform:
  m_ObjectHideFlags: 0
  m_CorrespondingSourceObject: {fileID: 0}
  m_PrefabInstance: {fileID: 0}
  m_PrefabAsset: {fileID: 0}
  m_GameObject: {fileID: 1354797277814326}
  m_LocalRotation: {x: 0, y: -0, z: -0, w: 1}
  m_LocalPosition: {x: -0.08282606, y: 5.684342e-16, z: 2.5925927e-14}
  m_LocalScale: {x: 1, y: 1, z: 1}
  m_ConstrainProportionsScale: 0
  m_Children: []
  m_Father: {fileID: 4668586400476016}
  m_RootOrder: 0
  m_LocalEulerAnglesHint: {x: 0, y: 0, z: 0}
--- !u!1 &1369783670197464
GameObject:
  m_ObjectHideFlags: 0
  m_CorrespondingSourceObject: {fileID: 0}
  m_PrefabInstance: {fileID: 0}
  m_PrefabAsset: {fileID: 0}
  serializedVersion: 6
  m_Component:
  - component: {fileID: 4602892461575326}
  - component: {fileID: 137707776166963076}
  m_Layer: 0
  m_Name: Dog-GoldenRetriever
  m_TagString: Untagged
  m_Icon: {fileID: 0}
  m_NavMeshLayer: 0
  m_StaticEditorFlags: 0
  m_IsActive: 1
--- !u!4 &4602892461575326
Transform:
  m_ObjectHideFlags: 0
  m_CorrespondingSourceObject: {fileID: 0}
  m_PrefabInstance: {fileID: 0}
  m_PrefabAsset: {fileID: 0}
  m_GameObject: {fileID: 1369783670197464}
  m_LocalRotation: {x: 0.00000008146034, y: -0, z: -0, w: 1}
  m_LocalPosition: {x: -0, y: 0, z: 0}
  m_LocalScale: {x: 100, y: 100, z: 100}
  m_ConstrainProportionsScale: 0
  m_Children: []
  m_Father: {fileID: 4839961340271822}
  m_RootOrder: 0
  m_LocalEulerAnglesHint: {x: 0, y: 0, z: 0}
--- !u!137 &137707776166963076
SkinnedMeshRenderer:
  m_ObjectHideFlags: 0
  m_CorrespondingSourceObject: {fileID: 0}
  m_PrefabInstance: {fileID: 0}
  m_PrefabAsset: {fileID: 0}
  m_GameObject: {fileID: 1369783670197464}
  m_Enabled: 1
  m_CastShadows: 1
  m_ReceiveShadows: 1
  m_DynamicOccludee: 1
  m_StaticShadowCaster: 0
  m_MotionVectors: 1
  m_LightProbeUsage: 1
  m_ReflectionProbeUsage: 1
  m_RayTracingMode: 3
  m_RayTraceProcedural: 0
  m_RenderingLayerMask: 1
  m_RendererPriority: 0
  m_Materials:
  - {fileID: 2100000, guid: dd792c0a9b16f455b8e7ebcd4c81bd1b, type: 2}
  m_StaticBatchInfo:
    firstSubMesh: 0
    subMeshCount: 0
  m_StaticBatchRoot: {fileID: 0}
  m_ProbeAnchor: {fileID: 0}
  m_LightProbeVolumeOverride: {fileID: 0}
  m_ScaleInLightmap: 1
  m_ReceiveGI: 1
  m_PreserveUVs: 0
  m_IgnoreNormalsForChartDetection: 0
  m_ImportantGI: 0
  m_StitchLightmapSeams: 0
  m_SelectedEditorRenderState: 3
  m_MinimumChartSize: 4
  m_AutoUVMaxDistance: 0.5
  m_AutoUVMaxAngle: 89
  m_LightmapParameters: {fileID: 0}
  m_SortingLayerID: 0
  m_SortingLayer: 0
  m_SortingOrder: 0
  serializedVersion: 2
  m_Quality: 0
  m_UpdateWhenOffscreen: 0
  m_SkinnedMotionVectors: 1
  m_Mesh: {fileID: 4300000, guid: 1a3a8dc36996a421ebbfb78979a9eaf2, type: 3}
  m_Bones:
  - {fileID: 4901085123273672}
  - {fileID: 4043926350795168}
  - {fileID: 4013026244850300}
  - {fileID: 4822152766462014}
  - {fileID: 4431739537752856}
  - {fileID: 4913799112826416}
  - {fileID: 4926367607297110}
  - {fileID: 4077390425092538}
  - {fileID: 4877479612309588}
  - {fileID: 4929820890244230}
  - {fileID: 4234198438741708}
  - {fileID: 4327699400586450}
  - {fileID: 4464386843100020}
  - {fileID: 4115698824095448}
  - {fileID: 4253642524836440}
  - {fileID: 4556335621616610}
  - {fileID: 4501781408794758}
  - {fileID: 4124410596085224}
  - {fileID: 4732282588181654}
  - {fileID: 4585745648945840}
  - {fileID: 4094376865362966}
  - {fileID: 4691912239584874}
  - {fileID: 4165973466996868}
  - {fileID: 4668586400476016}
  - {fileID: 4961832751968436}
  - {fileID: 4597854386979980}
  - {fileID: 4698426928446620}
  - {fileID: 4386222867311704}
  - {fileID: 4019539519368570}
  - {fileID: 4862098826854998}
  - {fileID: 4845609564031628}
  - {fileID: 4527138438326980}
  - {fileID: 4714233693066908}
  - {fileID: 4865339827715862}
  - {fileID: 4538582769647686}
  - {fileID: 4526275285224658}
  - {fileID: 4894835115279292}
  - {fileID: 4121375961911336}
  - {fileID: 4143398627211788}
  - {fileID: 4975081308353502}
  - {fileID: 4839665212633394}
  - {fileID: 4199269753715642}
  - {fileID: 4158260024392618}
  - {fileID: 4398699266640276}
  - {fileID: 4034138402657994}
  - {fileID: 4725020109321686}
  - {fileID: 4067696840198670}
  - {fileID: 4673220615300062}
  - {fileID: 4176233529577076}
  - {fileID: 4892734007866452}
  - {fileID: 4743522641743098}
  m_BlendShapeWeights: []
  m_RootBone: {fileID: 4527138438326980}
  m_AABB:
    m_Center: {x: -0.17597902, y: 0.12496506, z: 0.00030372292}
    m_Extent: {x: 0.5526076, y: 0.4681673, z: 0.1754995}
  m_DirtyAABB: 0
--- !u!1 &1380824461841644
GameObject:
  m_ObjectHideFlags: 0
  m_CorrespondingSourceObject: {fileID: 0}
  m_PrefabInstance: {fileID: 0}
  m_PrefabAsset: {fileID: 0}
  serializedVersion: 6
  m_Component:
  - component: {fileID: 4234198438741708}
  m_Layer: 0
  m_Name: Tail1_M
  m_TagString: Untagged
  m_Icon: {fileID: 0}
  m_NavMeshLayer: 0
  m_StaticEditorFlags: 0
  m_IsActive: 1
--- !u!4 &4234198438741708
Transform:
  m_ObjectHideFlags: 0
  m_CorrespondingSourceObject: {fileID: 0}
  m_PrefabInstance: {fileID: 0}
  m_PrefabAsset: {fileID: 0}
  m_GameObject: {fileID: 1380824461841644}
  m_LocalRotation: {x: 0, y: 0, z: 0.0032457237, w: 0.99999475}
  m_LocalPosition: {x: -0.106701575, y: 1.4210854e-16, z: -4.2922577e-15}
  m_LocalScale: {x: 1, y: 1, z: 1}
  m_ConstrainProportionsScale: 0
  m_Children:
  - {fileID: 4115698824095448}
  m_Father: {fileID: 4253642524836440}
  m_RootOrder: 0
  m_LocalEulerAnglesHint: {x: -0, y: 0, z: 16.715733}
--- !u!1 &1400254953688966
GameObject:
  m_ObjectHideFlags: 0
  m_CorrespondingSourceObject: {fileID: 0}
  m_PrefabInstance: {fileID: 0}
  m_PrefabAsset: {fileID: 0}
  serializedVersion: 6
  m_Component:
  - component: {fileID: 4398699266640276}
  m_Layer: 0
  m_Name: frontKnee_L
  m_TagString: Untagged
  m_Icon: {fileID: 0}
  m_NavMeshLayer: 0
  m_StaticEditorFlags: 0
  m_IsActive: 1
--- !u!4 &4398699266640276
Transform:
  m_ObjectHideFlags: 0
  m_CorrespondingSourceObject: {fileID: 0}
  m_PrefabInstance: {fileID: 0}
  m_PrefabAsset: {fileID: 0}
  m_GameObject: {fileID: 1400254953688966}
  m_LocalRotation: {x: 0, y: 0, z: -0.22784717, w: 0.97369695}
  m_LocalPosition: {x: 0.10108182, y: 4.7171156e-14, z: 1.0125234e-14}
  m_LocalScale: {x: 1, y: 1, z: 1}
  m_ConstrainProportionsScale: 0
  m_Children:
  - {fileID: 4143398627211788}
  m_Father: {fileID: 4839665212633394}
  m_RootOrder: 0
  m_LocalEulerAnglesHint: {x: 0, y: 0, z: -71.50974}
--- !u!1 &1408009893429160
GameObject:
  m_ObjectHideFlags: 0
  m_CorrespondingSourceObject: {fileID: 0}
  m_PrefabInstance: {fileID: 0}
  m_PrefabAsset: {fileID: 0}
  serializedVersion: 6
  m_Component:
  - component: {fileID: 4605800479268754}
  m_Layer: 0
  m_Name: Main
  m_TagString: Untagged
  m_Icon: {fileID: 0}
  m_NavMeshLayer: 0
  m_StaticEditorFlags: 0
  m_IsActive: 1
--- !u!4 &4605800479268754
Transform:
  m_ObjectHideFlags: 0
  m_CorrespondingSourceObject: {fileID: 0}
  m_PrefabInstance: {fileID: 0}
  m_PrefabAsset: {fileID: 0}
  m_GameObject: {fileID: 1408009893429160}
  m_LocalRotation: {x: 0, y: -0, z: -0, w: 1}
  m_LocalPosition: {x: -0, y: 0, z: 0}
  m_LocalScale: {x: 1, y: 1, z: 1}
  m_ConstrainProportionsScale: 0
  m_Children:
  - {fileID: 4415864180176942}
  m_Father: {fileID: 4853161833948474}
  m_RootOrder: 1
  m_LocalEulerAnglesHint: {x: 0, y: 0, z: 0}
--- !u!1 &1411795266126450
GameObject:
  m_ObjectHideFlags: 0
  m_CorrespondingSourceObject: {fileID: 0}
  m_PrefabInstance: {fileID: 0}
  m_PrefabAsset: {fileID: 0}
  serializedVersion: 6
  m_Component:
  - component: {fileID: 4034138402657994}
  m_Layer: 0
  m_Name: frontRump_L
  m_TagString: Untagged
  m_Icon: {fileID: 0}
  m_NavMeshLayer: 0
  m_StaticEditorFlags: 0
  m_IsActive: 1
--- !u!4 &4034138402657994
Transform:
  m_ObjectHideFlags: 0
  m_CorrespondingSourceObject: {fileID: 0}
  m_PrefabInstance: {fileID: 0}
  m_PrefabAsset: {fileID: 0}
  m_GameObject: {fileID: 1411795266126450}
  m_LocalRotation: {x: 0.19490388, y: 0.9630483, z: 0.18581447, w: -0.004854374}
  m_LocalPosition: {x: -0.067556806, y: -0.0022334538, z: 0.07600372}
  m_LocalScale: {x: 1, y: 1, z: 1}
  m_ConstrainProportionsScale: 0
  m_Children:
  - {fileID: 4839665212633394}
  m_Father: {fileID: 4862098826854998}
  m_RootOrder: 0
  m_LocalEulerAnglesHint: {x: -13.382528, y: -176.73189, z: -0.9898808}
--- !u!1 &1415285913955404
GameObject:
  m_ObjectHideFlags: 0
  m_CorrespondingSourceObject: {fileID: 0}
  m_PrefabInstance: {fileID: 0}
  m_PrefabAsset: {fileID: 0}
  serializedVersion: 6
  m_Component:
  - component: {fileID: 4477781628228240}
  m_Layer: 0
  m_Name: Tail4_M
  m_TagString: Untagged
  m_Icon: {fileID: 0}
  m_NavMeshLayer: 0
  m_StaticEditorFlags: 0
  m_IsActive: 1
--- !u!4 &4477781628228240
Transform:
  m_ObjectHideFlags: 0
  m_CorrespondingSourceObject: {fileID: 0}
  m_PrefabInstance: {fileID: 0}
  m_PrefabAsset: {fileID: 0}
  m_GameObject: {fileID: 1415285913955404}
  m_LocalRotation: {x: 0, y: -0, z: -0, w: 1}
  m_LocalPosition: {x: -0.07217316, y: 7.105427e-17, z: 9.39097e-15}
  m_LocalScale: {x: 1, y: 1, z: 1}
  m_ConstrainProportionsScale: 0
  m_Children: []
  m_Father: {fileID: 4877479612309588}
  m_RootOrder: 0
  m_LocalEulerAnglesHint: {x: 0, y: 0, z: 0}
--- !u!1 &1440879040331220
GameObject:
  m_ObjectHideFlags: 0
  m_CorrespondingSourceObject: {fileID: 0}
  m_PrefabInstance: {fileID: 0}
  m_PrefabAsset: {fileID: 0}
  serializedVersion: 6
  m_Component:
  - component: {fileID: 4124410596085224}
  m_Layer: 0
  m_Name: Head_M
  m_TagString: Untagged
  m_Icon: {fileID: 0}
  m_NavMeshLayer: 0
  m_StaticEditorFlags: 0
  m_IsActive: 1
--- !u!4 &4124410596085224
Transform:
  m_ObjectHideFlags: 0
  m_CorrespondingSourceObject: {fileID: 0}
  m_PrefabInstance: {fileID: 0}
  m_PrefabAsset: {fileID: 0}
  m_GameObject: {fileID: 1440879040331220}
  m_LocalRotation: {x: 0, y: 0, z: -0.7707588, w: 0.63712704}
  m_LocalPosition: {x: -0.038261924, y: 1.19015905e-14, z: -4.9515115e-15}
  m_LocalScale: {x: 1, y: 1, z: 1}
  m_ConstrainProportionsScale: 0
  m_Children:
  - {fileID: 4673220615300062}
  - {fileID: 4067696840198670}
  - {fileID: 4165973466996868}
  m_Father: {fileID: 4698426928446620}
  m_RootOrder: 0
  m_LocalEulerAnglesHint: {x: 0, y: 0, z: -117.66497}
--- !u!1 &1445269291963334
GameObject:
  m_ObjectHideFlags: 0
  m_CorrespondingSourceObject: {fileID: 0}
  m_PrefabInstance: {fileID: 0}
  m_PrefabAsset: {fileID: 0}
  serializedVersion: 6
  m_Component:
  - component: {fileID: 4894835115279292}
  m_Layer: 0
  m_Name: backToes3_L
  m_TagString: Untagged
  m_Icon: {fileID: 0}
  m_NavMeshLayer: 0
  m_StaticEditorFlags: 0
  m_IsActive: 1
--- !u!4 &4894835115279292
Transform:
  m_ObjectHideFlags: 0
  m_CorrespondingSourceObject: {fileID: 0}
  m_PrefabInstance: {fileID: 0}
  m_PrefabAsset: {fileID: 0}
  m_GameObject: {fileID: 1445269291963334}
  m_LocalRotation: {x: -0.0000000019399242, y: -0.000000011251102, z: -0.16991363, w: 0.98545897}
  m_LocalPosition: {x: 0.023196736, y: 6.217249e-15, z: -8.721912e-15}
  m_LocalScale: {x: 1, y: 1, z: 1}
  m_ConstrainProportionsScale: 0
  m_Children:
  - {fileID: 4526391967740426}
  m_Father: {fileID: 4865339827715862}
  m_RootOrder: 0
  m_LocalEulerAnglesHint: {x: -28.55637, y: -15.000806, z: -16.839357}
--- !u!1 &1474302875176634
GameObject:
  m_ObjectHideFlags: 0
  m_CorrespondingSourceObject: {fileID: 0}
  m_PrefabInstance: {fileID: 0}
  m_PrefabAsset: {fileID: 0}
  serializedVersion: 6
  m_Component:
  - component: {fileID: 4730713100336018}
  m_Layer: 0
  m_Name: frontToes4_L
  m_TagString: Untagged
  m_Icon: {fileID: 0}
  m_NavMeshLayer: 0
  m_StaticEditorFlags: 0
  m_IsActive: 1
--- !u!4 &4730713100336018
Transform:
  m_ObjectHideFlags: 0
  m_CorrespondingSourceObject: {fileID: 0}
  m_PrefabInstance: {fileID: 0}
  m_PrefabAsset: {fileID: 0}
  m_GameObject: {fileID: 1474302875176634}
  m_LocalRotation: {x: 0, y: -0, z: -0, w: 1}
  m_LocalPosition: {x: 0.05158776, y: 2.0428103e-16, z: 1.0658141e-14}
  m_LocalScale: {x: 1, y: 1, z: 1}
  m_ConstrainProportionsScale: 0
  m_Children: []
  m_Father: {fileID: 4975081308353502}
  m_RootOrder: 0
  m_LocalEulerAnglesHint: {x: 0, y: 0, z: 0}
--- !u!1 &1476006564342500
GameObject:
  m_ObjectHideFlags: 0
  m_CorrespondingSourceObject: {fileID: 0}
  m_PrefabInstance: {fileID: 0}
  m_PrefabAsset: {fileID: 0}
  serializedVersion: 6
  m_Component:
  - component: {fileID: 4556335621616610}
  m_Layer: 0
  m_Name: frontAnkle_R
  m_TagString: Untagged
  m_Icon: {fileID: 0}
  m_NavMeshLayer: 0
  m_StaticEditorFlags: 0
  m_IsActive: 1
--- !u!4 &4556335621616610
Transform:
  m_ObjectHideFlags: 0
  m_CorrespondingSourceObject: {fileID: 0}
  m_PrefabInstance: {fileID: 0}
  m_PrefabAsset: {fileID: 0}
  m_GameObject: {fileID: 1476006564342500}
  m_LocalRotation: {x: 0.00000001566332, y: 6.189802e-10, z: 0.039487, w: 0.99922013}
  m_LocalPosition: {x: -0.1442133, y: 9.7344355e-15, z: 4.1548985e-14}
  m_LocalScale: {x: 1, y: 1, z: 1}
  m_ConstrainProportionsScale: 0
  m_Children:
  - {fileID: 4464386843100020}
  m_Father: {fileID: 4501781408794758}
  m_RootOrder: 0
  m_LocalEulerAnglesHint: {x: 0.0000046577666, y: -0.000006345479, z: 25.820917}
--- !u!1 &1488825205979874
GameObject:
  m_ObjectHideFlags: 0
  m_CorrespondingSourceObject: {fileID: 0}
  m_PrefabInstance: {fileID: 0}
  m_PrefabAsset: {fileID: 0}
  serializedVersion: 6
  m_Component:
  - component: {fileID: 4839665212633394}
  m_Layer: 0
  m_Name: frontHip_L
  m_TagString: Untagged
  m_Icon: {fileID: 0}
  m_NavMeshLayer: 0
  m_StaticEditorFlags: 0
  m_IsActive: 1
--- !u!4 &4839665212633394
Transform:
  m_ObjectHideFlags: 0
  m_CorrespondingSourceObject: {fileID: 0}
  m_PrefabInstance: {fileID: 0}
  m_PrefabAsset: {fileID: 0}
  m_GameObject: {fileID: 1488825205979874}
  m_LocalRotation: {x: 0.11579087, y: -0.14540653, z: 0.6120845, w: 0.76863647}
  m_LocalPosition: {x: 0.1502409, y: -1.4352963e-14, z: 4.0252246e-14}
  m_LocalScale: {x: 1, y: 1, z: 1}
  m_ConstrainProportionsScale: 0
  m_Children:
  - {fileID: 4398699266640276}
  m_Father: {fileID: 4034138402657994}
  m_RootOrder: 0
  m_LocalEulerAnglesHint: {x: 8.714524, y: -13.44125, z: 101.30784}
--- !u!1 &1489727269724944
GameObject:
  m_ObjectHideFlags: 0
  m_CorrespondingSourceObject: {fileID: 0}
  m_PrefabInstance: {fileID: 0}
  m_PrefabAsset: {fileID: 0}
  serializedVersion: 6
  m_Component:
  - component: {fileID: 4165973466996868}
  m_Layer: 0
  m_Name: joint1_R
  m_TagString: Untagged
  m_Icon: {fileID: 0}
  m_NavMeshLayer: 0
  m_StaticEditorFlags: 0
  m_IsActive: 1
--- !u!4 &4165973466996868
Transform:
  m_ObjectHideFlags: 0
  m_CorrespondingSourceObject: {fileID: 0}
  m_PrefabInstance: {fileID: 0}
  m_PrefabAsset: {fileID: 0}
  m_GameObject: {fileID: 1489727269724944}
  m_LocalRotation: {x: 0.8564442, y: -0.41201746, z: 0.30931523, w: 0.03269695}
  m_LocalPosition: {x: 0.052550238, y: -0.05042565, z: -0.05925392}
  m_LocalScale: {x: 1, y: 1, z: 1}
  m_ConstrainProportionsScale: 0
  m_Children:
  - {fileID: 4668586400476016}
  m_Father: {fileID: 4124410596085224}
  m_RootOrder: 2
  m_LocalEulerAnglesHint: {x: -18.599997, y: 3.4722266, z: -84.52985}
--- !u!1 &1516128080212222
GameObject:
  m_ObjectHideFlags: 0
  m_CorrespondingSourceObject: {fileID: 0}
  m_PrefabInstance: {fileID: 0}
  m_PrefabAsset: {fileID: 0}
  serializedVersion: 6
  m_Component:
  - component: {fileID: 4845609564031628}
  m_Layer: 0
  m_Name: Spine1Part1_M
  m_TagString: Untagged
  m_Icon: {fileID: 0}
  m_NavMeshLayer: 0
  m_StaticEditorFlags: 0
  m_IsActive: 1
--- !u!4 &4845609564031628
Transform:
  m_ObjectHideFlags: 0
  m_CorrespondingSourceObject: {fileID: 0}
  m_PrefabInstance: {fileID: 0}
  m_PrefabAsset: {fileID: 0}
  m_GameObject: {fileID: 1516128080212222}
  m_LocalRotation: {x: 0, y: -0, z: -0, w: 1}
  m_LocalPosition: {x: -0.047547262, y: 2.842171e-16, z: -4.798466e-15}
  m_LocalScale: {x: 1, y: 1, z: 1}
  m_ConstrainProportionsScale: 0
  m_Children:
  - {fileID: 4094376865362966}
  m_Father: {fileID: 4585745648945840}
  m_RootOrder: 0
  m_LocalEulerAnglesHint: {x: 0.079134904, y: 1.1998688, z: -1.9305383}
--- !u!1 &1531344964548288
GameObject:
  m_ObjectHideFlags: 0
  m_CorrespondingSourceObject: {fileID: 0}
  m_PrefabInstance: {fileID: 0}
  m_PrefabAsset: {fileID: 0}
  serializedVersion: 6
  m_Component:
  - component: {fileID: 4929820890244230}
  m_Layer: 0
  m_Name: frontHip_R
  m_TagString: Untagged
  m_Icon: {fileID: 0}
  m_NavMeshLayer: 0
  m_StaticEditorFlags: 0
  m_IsActive: 1
--- !u!4 &4929820890244230
Transform:
  m_ObjectHideFlags: 0
  m_CorrespondingSourceObject: {fileID: 0}
  m_PrefabInstance: {fileID: 0}
  m_PrefabAsset: {fileID: 0}
  m_GameObject: {fileID: 1531344964548288}
  m_LocalRotation: {x: 0.11579087, y: -0.1454065, z: 0.6120845, w: 0.76863647}
  m_LocalPosition: {x: -0.1502409, y: -1.5489832e-14, z: 3.9008795e-14}
  m_LocalScale: {x: 1, y: 1, z: 1}
  m_ConstrainProportionsScale: 0
  m_Children:
  - {fileID: 4501781408794758}
  m_Father: {fileID: 4077390425092538}
  m_RootOrder: 0
  m_LocalEulerAnglesHint: {x: 37.77815, y: 2.2684526, z: 157.47922}
--- !u!1 &1540094111297350
GameObject:
  m_ObjectHideFlags: 0
  m_CorrespondingSourceObject: {fileID: 0}
  m_PrefabInstance: {fileID: 0}
  m_PrefabAsset: {fileID: 0}
  serializedVersion: 6
  m_Component:
  - component: {fileID: 4585745648945840}
  m_Layer: 0
  m_Name: Spine1_M
  m_TagString: Untagged
  m_Icon: {fileID: 0}
  m_NavMeshLayer: 0
  m_StaticEditorFlags: 0
  m_IsActive: 1
--- !u!4 &4585745648945840
Transform:
  m_ObjectHideFlags: 0
  m_CorrespondingSourceObject: {fileID: 0}
  m_PrefabInstance: {fileID: 0}
  m_PrefabAsset: {fileID: 0}
  m_GameObject: {fileID: 1540094111297350}
  m_LocalRotation: {x: 0, y: 0, z: 0.009971278, w: 0.9999503}
  m_LocalPosition: {x: -0.043351874, y: -4.973799e-16, z: -2.9160032e-15}
  m_LocalScale: {x: 1, y: 1, z: 1}
  m_ConstrainProportionsScale: 0
  m_Children:
  - {fileID: 4845609564031628}
  m_Father: {fileID: 4732282588181654}
  m_RootOrder: 0
  m_LocalEulerAnglesHint: {x: 0.055193655, y: 1.201208, z: -0.78814524}
--- !u!1 &1549228397915478
GameObject:
  m_ObjectHideFlags: 0
  m_CorrespondingSourceObject: {fileID: 0}
  m_PrefabInstance: {fileID: 0}
  m_PrefabAsset: {fileID: 0}
  serializedVersion: 6
  m_Component:
  - component: {fileID: 4253642524836440}
  m_Layer: 0
  m_Name: Tail0_M
  m_TagString: Untagged
  m_Icon: {fileID: 0}
  m_NavMeshLayer: 0
  m_StaticEditorFlags: 0
  m_IsActive: 1
--- !u!4 &4253642524836440
Transform:
  m_ObjectHideFlags: 0
  m_CorrespondingSourceObject: {fileID: 0}
  m_PrefabInstance: {fileID: 0}
  m_PrefabAsset: {fileID: 0}
  m_GameObject: {fileID: 1549228397915478}
  m_LocalRotation: {x: -0.43828738, y: 0.89883494, z: -1.41627754e-14, w: 7.0647795e-15}
  m_LocalPosition: {x: 0.105136484, y: 0.0052186814, z: -1.2788752e-16}
  m_LocalScale: {x: 1, y: 1, z: 1}
  m_ConstrainProportionsScale: 0
  m_Children:
  - {fileID: 4234198438741708}
  m_Father: {fileID: 4527138438326980}
  m_RootOrder: 3
  m_LocalEulerAnglesHint: {x: 5.7903816e-15, y: 180, z: -9.301224}
--- !u!1 &1580133094971292
GameObject:
  m_ObjectHideFlags: 0
  m_CorrespondingSourceObject: {fileID: 0}
  m_PrefabInstance: {fileID: 0}
  m_PrefabAsset: {fileID: 0}
  serializedVersion: 6
  m_Component:
  - component: {fileID: 4691912239584874}
  m_Layer: 0
  m_Name: RootPart1_M
  m_TagString: Untagged
  m_Icon: {fileID: 0}
  m_NavMeshLayer: 0
  m_StaticEditorFlags: 0
  m_IsActive: 1
--- !u!4 &4691912239584874
Transform:
  m_ObjectHideFlags: 0
  m_CorrespondingSourceObject: {fileID: 0}
  m_PrefabInstance: {fileID: 0}
  m_PrefabAsset: {fileID: 0}
  m_GameObject: {fileID: 1580133094971292}
  m_LocalRotation: {x: 0, y: -0, z: -0, w: 1}
  m_LocalPosition: {x: -0.043351874, y: -2.842171e-16, z: 3.2316805e-17}
  m_LocalScale: {x: 1, y: 1, z: 1}
  m_ConstrainProportionsScale: 0
  m_Children:
  - {fileID: 4732282588181654}
  m_Father: {fileID: 4527138438326980}
  m_RootOrder: 2
  m_LocalEulerAnglesHint: {x: -0.14196452, y: -2.5839493, z: -5.053096}
--- !u!1 &1581814175701666
GameObject:
  m_ObjectHideFlags: 0
  m_CorrespondingSourceObject: {fileID: 0}
  m_PrefabInstance: {fileID: 0}
  m_PrefabAsset: {fileID: 0}
  serializedVersion: 6
  m_Component:
  - component: {fileID: 4094376865362966}
  m_Layer: 0
  m_Name: Spine1Part2_M
  m_TagString: Untagged
  m_Icon: {fileID: 0}
  m_NavMeshLayer: 0
  m_StaticEditorFlags: 0
  m_IsActive: 1
--- !u!4 &4094376865362966
Transform:
  m_ObjectHideFlags: 0
  m_CorrespondingSourceObject: {fileID: 0}
  m_PrefabInstance: {fileID: 0}
  m_PrefabAsset: {fileID: 0}
  m_GameObject: {fileID: 1581814175701666}
  m_LocalRotation: {x: 0, y: -0, z: -0, w: 1}
  m_LocalPosition: {x: -0.047547262, y: 1.4210854e-15, z: -6.5879813e-15}
  m_LocalScale: {x: 1, y: 1, z: 1}
  m_ConstrainProportionsScale: 0
  m_Children:
  - {fileID: 4862098826854998}
  m_Father: {fileID: 4845609564031628}
  m_RootOrder: 0
  m_LocalEulerAnglesHint: {x: 0.079134904, y: 1.1998688, z: -1.9305383}
--- !u!1 &1599342280152334
GameObject:
  m_ObjectHideFlags: 0
  m_CorrespondingSourceObject: {fileID: 0}
  m_PrefabInstance: {fileID: 0}
  m_PrefabAsset: {fileID: 0}
  serializedVersion: 6
  m_Component:
  - component: {fileID: 4386222867311704}
  m_Layer: 0
  m_Name: Neck3_M
  m_TagString: Untagged
  m_Icon: {fileID: 0}
  m_NavMeshLayer: 0
  m_StaticEditorFlags: 0
  m_IsActive: 1
--- !u!4 &4386222867311704
Transform:
  m_ObjectHideFlags: 0
  m_CorrespondingSourceObject: {fileID: 0}
  m_PrefabInstance: {fileID: 0}
  m_PrefabAsset: {fileID: 0}
  m_GameObject: {fileID: 1599342280152334}
  m_LocalRotation: {x: 0, y: 0, z: -0.18833722, w: 0.9821044}
  m_LocalPosition: {x: -0.061040375, y: -9.876544e-15, z: 4.9491415e-15}
  m_LocalScale: {x: 1, y: 1, z: 1}
  m_ConstrainProportionsScale: 0
  m_Children:
  - {fileID: 4698426928446620}
  m_Father: {fileID: 4961832751968436}
  m_RootOrder: 0
  m_LocalEulerAnglesHint: {x: 0.56891626, y: 0.37557495, z: 6.9084177}
--- !u!1 &1610664338939552
GameObject:
  m_ObjectHideFlags: 0
  m_CorrespondingSourceObject: {fileID: 0}
  m_PrefabInstance: {fileID: 0}
  m_PrefabAsset: {fileID: 0}
  serializedVersion: 6
  m_Component:
  - component: {fileID: 4839961340271822}
  m_Layer: 0
  m_Name: Geometry
  m_TagString: Untagged
  m_Icon: {fileID: 0}
  m_NavMeshLayer: 0
  m_StaticEditorFlags: 0
  m_IsActive: 1
--- !u!4 &4839961340271822
Transform:
  m_ObjectHideFlags: 0
  m_CorrespondingSourceObject: {fileID: 0}
  m_PrefabInstance: {fileID: 0}
  m_PrefabAsset: {fileID: 0}
  m_GameObject: {fileID: 1610664338939552}
  m_LocalRotation: {x: 0, y: -0, z: -0, w: 1}
  m_LocalPosition: {x: -0, y: 0, z: 0}
  m_LocalScale: {x: 1, y: 1, z: 1}
  m_ConstrainProportionsScale: 0
  m_Children:
  - {fileID: 4602892461575326}
  m_Father: {fileID: 4853161833948474}
  m_RootOrder: 0
  m_LocalEulerAnglesHint: {x: 0, y: 0, z: 0}
--- !u!1 &1637977210360060
GameObject:
  m_ObjectHideFlags: 0
  m_CorrespondingSourceObject: {fileID: 0}
  m_PrefabInstance: {fileID: 0}
  m_PrefabAsset: {fileID: 0}
  serializedVersion: 6
  m_Component:
  - component: {fileID: 4176233529577076}
  m_Layer: 0
  m_Name: JawEnd_M
  m_TagString: Untagged
  m_Icon: {fileID: 0}
  m_NavMeshLayer: 0
  m_StaticEditorFlags: 0
  m_IsActive: 1
--- !u!4 &4176233529577076
Transform:
  m_ObjectHideFlags: 0
  m_CorrespondingSourceObject: {fileID: 0}
  m_PrefabInstance: {fileID: 0}
  m_PrefabAsset: {fileID: 0}
  m_GameObject: {fileID: 1637977210360060}
  m_LocalRotation: {x: 0, y: -0, z: -0, w: 1}
  m_LocalPosition: {x: -0.10971054, y: -1.1368684e-15, z: -5.2205405e-14}
  m_LocalScale: {x: 1, y: 1, z: 1}
  m_ConstrainProportionsScale: 0
  m_Children: []
  m_Father: {fileID: 4673220615300062}
  m_RootOrder: 0
  m_LocalEulerAnglesHint: {x: 0, y: 0, z: 0}
--- !u!1 &1650858008060820
GameObject:
  m_ObjectHideFlags: 0
  m_CorrespondingSourceObject: {fileID: 0}
  m_PrefabInstance: {fileID: 0}
  m_PrefabAsset: {fileID: 0}
  serializedVersion: 6
  m_Component:
  - component: {fileID: 4526275285224658}
  m_Layer: 0
  m_Name: backToes1_L
  m_TagString: Untagged
  m_Icon: {fileID: 0}
  m_NavMeshLayer: 0
  m_StaticEditorFlags: 0
  m_IsActive: 1
--- !u!4 &4526275285224658
Transform:
  m_ObjectHideFlags: 0
  m_CorrespondingSourceObject: {fileID: 0}
  m_PrefabInstance: {fileID: 0}
  m_PrefabAsset: {fileID: 0}
  m_GameObject: {fileID: 1650858008060820}
  m_LocalRotation: {x: 0, y: 0, z: -0.49389404, w: 0.8695221}
  m_LocalPosition: {x: 0.16718012, y: 2.842171e-16, z: 5.140262e-10}
  m_LocalScale: {x: 1, y: 1, z: 1}
  m_ConstrainProportionsScale: 0
  m_Children:
  - {fileID: 4865339827715862}
  m_Father: {fileID: 4121375961911336}
  m_RootOrder: 0
  m_LocalEulerAnglesHint: {x: -0.0000007703954, y: -0.000001306098, z: -26.502232}
--- !u!1 &1673996234767080
GameObject:
  m_ObjectHideFlags: 0
  m_CorrespondingSourceObject: {fileID: 0}
  m_PrefabInstance: {fileID: 0}
  m_PrefabAsset: {fileID: 0}
  serializedVersion: 6
  m_Component:
  - component: {fileID: 4077390425092538}
  m_Layer: 0
  m_Name: frontRump_R
  m_TagString: Untagged
  m_Icon: {fileID: 0}
  m_NavMeshLayer: 0
  m_StaticEditorFlags: 0
  m_IsActive: 1
--- !u!4 &4077390425092538
Transform:
  m_ObjectHideFlags: 0
  m_CorrespondingSourceObject: {fileID: 0}
  m_PrefabInstance: {fileID: 0}
  m_PrefabAsset: {fileID: 0}
  m_GameObject: {fileID: 1673996234767080}
  m_LocalRotation: {x: 0.9630483, y: -0.19490388, z: 0.004854374, w: 0.18581447}
  m_LocalPosition: {x: -0.067556806, y: -0.0022334538, z: -0.07600372}
  m_LocalScale: {x: 1, y: 1, z: 1}
  m_ConstrainProportionsScale: 0
  m_Children:
  - {fileID: 4929820890244230}
  m_Father: {fileID: 4862098826854998}
  m_RootOrder: 1
  m_LocalEulerAnglesHint: {x: 21.26743, y: 167.48775, z: -179.68799}
--- !u!1 &1679644490755450
GameObject:
  m_ObjectHideFlags: 0
  m_CorrespondingSourceObject: {fileID: 0}
  m_PrefabInstance: {fileID: 0}
  m_PrefabAsset: {fileID: 0}
  serializedVersion: 6
  m_Component:
  - component: {fileID: 4961832751968436}
  m_Layer: 0
  m_Name: Neck2_M
  m_TagString: Untagged
  m_Icon: {fileID: 0}
  m_NavMeshLayer: 0
  m_StaticEditorFlags: 0
  m_IsActive: 1
--- !u!4 &4961832751968436
Transform:
  m_ObjectHideFlags: 0
  m_CorrespondingSourceObject: {fileID: 0}
  m_PrefabInstance: {fileID: 0}
  m_PrefabAsset: {fileID: 0}
  m_GameObject: {fileID: 1679644490755450}
  m_LocalRotation: {x: 0, y: 0, z: -0.04620332, w: 0.99893206}
  m_LocalPosition: {x: -0.06097693, y: 7.31859e-15, z: 7.161624e-15}
  m_LocalScale: {x: 1, y: 1, z: 1}
  m_ConstrainProportionsScale: 0
  m_Children:
  - {fileID: 4386222867311704}
  m_Father: {fileID: 4597854386979980}
  m_RootOrder: 0
  m_LocalEulerAnglesHint: {x: 0, y: 0, z: -5.2963953}
--- !u!1 &1709468111193082
GameObject:
  m_ObjectHideFlags: 0
  m_CorrespondingSourceObject: {fileID: 0}
  m_PrefabInstance: {fileID: 0}
  m_PrefabAsset: {fileID: 0}
  serializedVersion: 6
  m_Component:
  - component: {fileID: 4602147680315088}
  m_Layer: 0
  m_Name: backToes4_R
  m_TagString: Untagged
  m_Icon: {fileID: 0}
  m_NavMeshLayer: 0
  m_StaticEditorFlags: 0
  m_IsActive: 1
--- !u!4 &4602147680315088
Transform:
  m_ObjectHideFlags: 0
  m_CorrespondingSourceObject: {fileID: 0}
  m_PrefabInstance: {fileID: 0}
  m_PrefabAsset: {fileID: 0}
  m_GameObject: {fileID: 1709468111193082}
  m_LocalRotation: {x: 0, y: -0, z: -0, w: 1}
  m_LocalPosition: {x: -0.027469344, y: 1.5987211e-16, z: 1.5081682e-10}
  m_LocalScale: {x: 1, y: 1, z: 1}
  m_ConstrainProportionsScale: 0
  m_Children: []
  m_Father: {fileID: 4043926350795168}
  m_RootOrder: 0
  m_LocalEulerAnglesHint: {x: 0, y: 0, z: 0}
--- !u!1 &1732467182356880
GameObject:
  m_ObjectHideFlags: 0
  m_CorrespondingSourceObject: {fileID: 0}
  m_PrefabInstance: {fileID: 0}
  m_PrefabAsset: {fileID: 0}
  serializedVersion: 6
  m_Component:
  - component: {fileID: 4926367607297110}
  m_Layer: 0
  m_Name: frontToes2_R
  m_TagString: Untagged
  m_Icon: {fileID: 0}
  m_NavMeshLayer: 0
  m_StaticEditorFlags: 0
  m_IsActive: 1
--- !u!4 &4926367607297110
Transform:
  m_ObjectHideFlags: 0
  m_CorrespondingSourceObject: {fileID: 0}
  m_PrefabInstance: {fileID: 0}
  m_PrefabAsset: {fileID: 0}
  m_GameObject: {fileID: 1732467182356880}
  m_LocalRotation: {x: 0, y: 0, z: -0.14555648, w: 0.98934996}
  m_LocalPosition: {x: -0.040068883, y: 1.1723955e-15, z: 2.4762414e-14}
  m_LocalScale: {x: 1, y: 1, z: 1}
  m_ConstrainProportionsScale: 0
  m_Children:
  - {fileID: 4327699400586450}
  m_Father: {fileID: 4464386843100020}
  m_RootOrder: 0
  m_LocalEulerAnglesHint: {x: 0, y: 0, z: -16.739008}
--- !u!1 &1749181265313024
GameObject:
  m_ObjectHideFlags: 0
  m_CorrespondingSourceObject: {fileID: 0}
  m_PrefabInstance: {fileID: 0}
  m_PrefabAsset: {fileID: 0}
  serializedVersion: 6
  m_Component:
  - component: {fileID: 4975081308353502}
  m_Layer: 0
  m_Name: frontToes3_L
  m_TagString: Untagged
  m_Icon: {fileID: 0}
  m_NavMeshLayer: 0
  m_StaticEditorFlags: 0
  m_IsActive: 1
--- !u!4 &4975081308353502
Transform:
  m_ObjectHideFlags: 0
  m_CorrespondingSourceObject: {fileID: 0}
  m_PrefabInstance: {fileID: 0}
  m_PrefabAsset: {fileID: 0}
  m_GameObject: {fileID: 1749181265313024}
  m_LocalRotation: {x: -0.00000001040945, y: 0.0000000038983115, z: -0.3507107, w: 0.93648386}
  m_LocalPosition: {x: 0.02128923, y: 6.785683e-15, z: -1.7532642e-14}
  m_LocalScale: {x: 1, y: 1, z: 1}
  m_ConstrainProportionsScale: 0
  m_Children:
  - {fileID: 4730713100336018}
  m_Father: {fileID: 4199269753715642}
  m_RootOrder: 0
  m_LocalEulerAnglesHint: {x: 5.8025904, y: 6.123006, z: -60.51634}
--- !u!1 &1760130353588156
GameObject:
  m_ObjectHideFlags: 0
  m_CorrespondingSourceObject: {fileID: 0}
  m_PrefabInstance: {fileID: 0}
  m_PrefabAsset: {fileID: 0}
  serializedVersion: 6
  m_Component:
  - component: {fileID: 4327699400586450}
  m_Layer: 0
  m_Name: frontToes3_R
  m_TagString: Untagged
  m_Icon: {fileID: 0}
  m_NavMeshLayer: 0
  m_StaticEditorFlags: 0
  m_IsActive: 1
--- !u!4 &4327699400586450
Transform:
  m_ObjectHideFlags: 0
  m_CorrespondingSourceObject: {fileID: 0}
  m_PrefabInstance: {fileID: 0}
  m_PrefabAsset: {fileID: 0}
  m_GameObject: {fileID: 1760130353588156}
  m_LocalRotation: {x: 0, y: 0, z: -0.3507107, w: 0.93648386}
  m_LocalPosition: {x: -0.02128923, y: -6.785683e-15, z: 2.3270274e-14}
  m_LocalScale: {x: 1, y: 1, z: 1}
  m_ConstrainProportionsScale: 0
  m_Children:
  - {fileID: 4840642577230284}
  m_Father: {fileID: 4926367607297110}
  m_RootOrder: 0
  m_LocalEulerAnglesHint: {x: -16.02035, y: -12.123707, z: -31.915236}
--- !u!1 &1773005297524002
GameObject:
  m_ObjectHideFlags: 0
  m_CorrespondingSourceObject: {fileID: 0}
  m_PrefabInstance: {fileID: 0}
  m_PrefabAsset: {fileID: 0}
  serializedVersion: 6
  m_Component:
  - component: {fileID: 4668586400476016}
  m_Layer: 0
  m_Name: joint2_R
  m_TagString: Untagged
  m_Icon: {fileID: 0}
  m_NavMeshLayer: 0
  m_StaticEditorFlags: 0
  m_IsActive: 1
--- !u!4 &4668586400476016
Transform:
  m_ObjectHideFlags: 0
  m_CorrespondingSourceObject: {fileID: 0}
  m_PrefabInstance: {fileID: 0}
  m_PrefabAsset: {fileID: 0}
  m_GameObject: {fileID: 1773005297524002}
  m_LocalRotation: {x: 0.051688157, y: -0.2895959, z: -0.26862246, w: 0.91722655}
  m_LocalPosition: {x: -0.044794764, y: -1.0746958e-14, z: 2.5579537e-15}
  m_LocalScale: {x: 1, y: 1, z: 1}
  m_ConstrainProportionsScale: 0
  m_Children:
  - {fileID: 4892734007866452}
  m_Father: {fileID: 4165973466996868}
  m_RootOrder: 0
  m_LocalEulerAnglesHint: {x: 13.483204, y: -18.485413, z: -19.727898}
--- !u!1 &1777144871361816
GameObject:
  m_ObjectHideFlags: 0
  m_CorrespondingSourceObject: {fileID: 0}
  m_PrefabInstance: {fileID: 0}
  m_PrefabAsset: {fileID: 0}
  serializedVersion: 6
  m_Component:
  - component: {fileID: 4199269753715642}
  m_Layer: 0
  m_Name: frontToes2_L
  m_TagString: Untagged
  m_Icon: {fileID: 0}
  m_NavMeshLayer: 0
  m_StaticEditorFlags: 0
  m_IsActive: 1
--- !u!4 &4199269753715642
Transform:
  m_ObjectHideFlags: 0
  m_CorrespondingSourceObject: {fileID: 0}
  m_PrefabInstance: {fileID: 0}
  m_PrefabAsset: {fileID: 0}
  m_GameObject: {fileID: 1777144871361816}
  m_LocalRotation: {x: 0, y: 0, z: -0.14555648, w: 0.98934996}
  m_LocalPosition: {x: 0.040068883, y: -1.1013412e-15, z: -3.684164e-14}
  m_LocalScale: {x: 1, y: 1, z: 1}
  m_ConstrainProportionsScale: 0
  m_Children:
  - {fileID: 4975081308353502}
  m_Father: {fileID: 4158260024392618}
  m_RootOrder: 0
  m_LocalEulerAnglesHint: {x: 0, y: 0, z: -16.739008}
--- !u!1 &1784095275079954
GameObject:
  m_ObjectHideFlags: 0
  m_CorrespondingSourceObject: {fileID: 0}
  m_PrefabInstance: {fileID: 0}
  m_PrefabAsset: {fileID: 0}
  serializedVersion: 6
  m_Component:
  - component: {fileID: 4725020109321686}
  m_Layer: 0
  m_Name: joint2_L
  m_TagString: Untagged
  m_Icon: {fileID: 0}
  m_NavMeshLayer: 0
  m_StaticEditorFlags: 0
  m_IsActive: 1
--- !u!4 &4725020109321686
Transform:
  m_ObjectHideFlags: 0
  m_CorrespondingSourceObject: {fileID: 0}
  m_PrefabInstance: {fileID: 0}
  m_PrefabAsset: {fileID: 0}
  m_GameObject: {fileID: 1784095275079954}
  m_LocalRotation: {x: 0.025025925, y: -0.2576168, z: -0.17290944, w: 0.9503208}
  m_LocalPosition: {x: 0.044794764, y: -1.1475265e-14, z: 2.5579537e-15}
  m_LocalScale: {x: 1, y: 1, z: 1}
  m_ConstrainProportionsScale: 0
  m_Children:
  - {fileID: 4743522641743098}
  m_Father: {fileID: 4067696840198670}
  m_RootOrder: 0
  m_LocalEulerAnglesHint: {x: 13.610307, y: -18.245802, z: -20.04489}
--- !u!1 &1807264433119660
GameObject:
  m_ObjectHideFlags: 0
  m_CorrespondingSourceObject: {fileID: 0}
  m_PrefabInstance: {fileID: 0}
  m_PrefabAsset: {fileID: 0}
  serializedVersion: 6
  m_Component:
  - component: {fileID: 4143398627211788}
  m_Layer: 0
  m_Name: frontAnkle_L
  m_TagString: Untagged
  m_Icon: {fileID: 0}
  m_NavMeshLayer: 0
  m_StaticEditorFlags: 0
  m_IsActive: 1
--- !u!4 &4143398627211788
Transform:
  m_ObjectHideFlags: 0
  m_CorrespondingSourceObject: {fileID: 0}
  m_PrefabInstance: {fileID: 0}
  m_PrefabAsset: {fileID: 0}
  m_GameObject: {fileID: 1807264433119660}
  m_LocalRotation: {x: 0.000000027806996, y: 0.0000000010988719, z: 0.039487, w: 0.99922013}
  m_LocalPosition: {x: 0.1442133, y: -1.00897065e-14, z: -2.3625545e-15}
  m_LocalScale: {x: 1, y: 1, z: 1}
  m_ConstrainProportionsScale: 0
  m_Children:
  - {fileID: 4158260024392618}
  m_Father: {fileID: 4398699266640276}
  m_RootOrder: 0
  m_LocalEulerAnglesHint: {x: 0.0000013860656, y: 0.000005322423, z: 20.920746}
--- !u!1 &1828247021295628
GameObject:
  m_ObjectHideFlags: 0
  m_CorrespondingSourceObject: {fileID: 0}
  m_PrefabInstance: {fileID: 0}
  m_PrefabAsset: {fileID: 0}
  serializedVersion: 6
  m_Component:
  - component: {fileID: 4464386843100020}
  m_Layer: 0
  m_Name: frontToes1_R
  m_TagString: Untagged
  m_Icon: {fileID: 0}
  m_NavMeshLayer: 0
  m_StaticEditorFlags: 0
  m_IsActive: 1
--- !u!4 &4464386843100020
Transform:
  m_ObjectHideFlags: 0
  m_CorrespondingSourceObject: {fileID: 0}
  m_PrefabInstance: {fileID: 0}
  m_PrefabAsset: {fileID: 0}
  m_GameObject: {fileID: 1828247021295628}
  m_LocalRotation: {x: 0.000000015705432, y: -0.0000000033889354, z: -0.21092644, w: 0.9775019}
  m_LocalPosition: {x: -0.10986165, y: -4.2632563e-16, z: 3.360867e-14}
  m_LocalScale: {x: 1, y: 1, z: 1}
  m_ConstrainProportionsScale: 0
  m_Children:
  - {fileID: 4926367607297110}
  m_Father: {fileID: 4556335621616610}
  m_RootOrder: 0
  m_LocalEulerAnglesHint: {x: 0, y: 0, z: -24.353155}
--- !u!1 &1844750741997124
GameObject:
  m_ObjectHideFlags: 0
  m_CorrespondingSourceObject: {fileID: 0}
  m_PrefabInstance: {fileID: 0}
  m_PrefabAsset: {fileID: 0}
  serializedVersion: 6
  m_Component:
  - component: {fileID: 4013026244850300}
  m_Layer: 0
  m_Name: backToes2_R
  m_TagString: Untagged
  m_Icon: {fileID: 0}
  m_NavMeshLayer: 0
  m_StaticEditorFlags: 0
  m_IsActive: 1
--- !u!4 &4013026244850300
Transform:
  m_ObjectHideFlags: 0
  m_CorrespondingSourceObject: {fileID: 0}
  m_PrefabInstance: {fileID: 0}
  m_PrefabAsset: {fileID: 0}
  m_GameObject: {fileID: 1844750741997124}
  m_LocalRotation: {x: -0.0000000046286717, y: -0.000000010653174, z: -0.3984985, w: 0.91716903}
  m_LocalPosition: {x: -0.13379683, y: 2.1316282e-16, z: 2.9786199e-10}
  m_LocalScale: {x: 1, y: 1, z: 1}
  m_ConstrainProportionsScale: 0
  m_Children:
  - {fileID: 4043926350795168}
  m_Father: {fileID: 4822152766462014}
  m_RootOrder: 0
  m_LocalEulerAnglesHint: {x: -0.0000003353274, y: -0.0000012832545, z: -14.6445055}
--- !u!1 &1846307910543656
GameObject:
  m_ObjectHideFlags: 0
  m_CorrespondingSourceObject: {fileID: 0}
  m_PrefabInstance: {fileID: 0}
  m_PrefabAsset: {fileID: 0}
  serializedVersion: 6
  m_Component:
  - component: {fileID: 4743522641743098}
  m_Layer: 0
  m_Name: joint3_L
  m_TagString: Untagged
  m_Icon: {fileID: 0}
  m_NavMeshLayer: 0
  m_StaticEditorFlags: 0
  m_IsActive: 1
--- !u!4 &4743522641743098
Transform:
  m_ObjectHideFlags: 0
  m_CorrespondingSourceObject: {fileID: 0}
  m_PrefabInstance: {fileID: 0}
  m_PrefabAsset: {fileID: 0}
  m_GameObject: {fileID: 1846307910543656}
  m_LocalRotation: {x: 0, y: -0, z: -0, w: 1}
  m_LocalPosition: {x: 0.08282606, y: 8.5265126e-16, z: 2.5277557e-14}
  m_LocalScale: {x: 1, y: 1, z: 1}
  m_ConstrainProportionsScale: 0
  m_Children: []
  m_Father: {fileID: 4725020109321686}
  m_RootOrder: 0
  m_LocalEulerAnglesHint: {x: 0, y: 0, z: 0}
--- !u!1 &1867918408925386
GameObject:
  m_ObjectHideFlags: 0
  m_CorrespondingSourceObject: {fileID: 0}
  m_PrefabInstance: {fileID: 0}
  m_PrefabAsset: {fileID: 0}
  serializedVersion: 6
  m_Component:
  - component: {fileID: 4865339827715862}
  m_Layer: 0
  m_Name: backToes2_L
  m_TagString: Untagged
  m_Icon: {fileID: 0}
  m_NavMeshLayer: 0
  m_StaticEditorFlags: 0
  m_IsActive: 1
--- !u!4 &4865339827715862
Transform:
  m_ObjectHideFlags: 0
  m_CorrespondingSourceObject: {fileID: 0}
  m_PrefabInstance: {fileID: 0}
  m_PrefabAsset: {fileID: 0}
  m_GameObject: {fileID: 1867918408925386}
  m_LocalRotation: {x: -0.0000000046286064, y: -0.000000010653025, z: -0.3984985, w: 0.91716903}
  m_LocalPosition: {x: 0.13379683, y: -4.973799e-16, z: -2.9784966e-10}
  m_LocalScale: {x: 1, y: 1, z: 1}
  m_ConstrainProportionsScale: 0
  m_Children:
  - {fileID: 4894835115279292}
  m_Father: {fileID: 4526275285224658}
  m_RootOrder: 0
  m_LocalEulerAnglesHint: {x: -0.0000003353288, y: -0.0000012832597, z: -14.6445055}
--- !u!1 &1872015672302386
GameObject:
  m_ObjectHideFlags: 0
  m_CorrespondingSourceObject: {fileID: 0}
  m_PrefabInstance: {fileID: 0}
  m_PrefabAsset: {fileID: 0}
  serializedVersion: 6
  m_Component:
  - component: {fileID: 4877479612309588}
  m_Layer: 0
  m_Name: Tail3_M
  m_TagString: Untagged
  m_Icon: {fileID: 0}
  m_NavMeshLayer: 0
  m_StaticEditorFlags: 0
  m_IsActive: 1
--- !u!4 &4877479612309588
Transform:
  m_ObjectHideFlags: 0
  m_CorrespondingSourceObject: {fileID: 0}
  m_PrefabInstance: {fileID: 0}
  m_PrefabAsset: {fileID: 0}
  m_GameObject: {fileID: 1872015672302386}
  m_LocalRotation: {x: 0, y: 0, z: -0.22587663, w: 0.9741559}
  m_LocalPosition: {x: -0.1282116, y: -2.1316282e-16, z: 7.425171e-15}
  m_LocalScale: {x: 1, y: 1, z: 1}
  m_ConstrainProportionsScale: 0
  m_Children:
  - {fileID: 4477781628228240}
  m_Father: {fileID: 4115698824095448}
  m_RootOrder: 0
  m_LocalEulerAnglesHint: {x: -0, y: 0, z: 25.845795}
--- !u!1 &1888396229852290
GameObject:
  m_ObjectHideFlags: 0
  m_CorrespondingSourceObject: {fileID: 0}
  m_PrefabInstance: {fileID: 0}
  m_PrefabAsset: {fileID: 0}
  serializedVersion: 6
  m_Component:
  - component: {fileID: 4526391967740426}
  m_Layer: 0
  m_Name: backToes4_L
  m_TagString: Untagged
  m_Icon: {fileID: 0}
  m_NavMeshLayer: 0
  m_StaticEditorFlags: 0
  m_IsActive: 1
--- !u!4 &4526391967740426
Transform:
  m_ObjectHideFlags: 0
  m_CorrespondingSourceObject: {fileID: 0}
  m_PrefabInstance: {fileID: 0}
  m_PrefabAsset: {fileID: 0}
  m_GameObject: {fileID: 1888396229852290}
  m_LocalRotation: {x: 0, y: -0, z: -0, w: 1}
  m_LocalPosition: {x: 0.027469344, y: -2.842171e-16, z: -1.5080581e-10}
  m_LocalScale: {x: 1, y: 1, z: 1}
  m_ConstrainProportionsScale: 0
  m_Children: []
  m_Father: {fileID: 4894835115279292}
  m_RootOrder: 0
  m_LocalEulerAnglesHint: {x: 0, y: 0, z: 0}
--- !u!1 &1913721679645314
GameObject:
  m_ObjectHideFlags: 0
  m_CorrespondingSourceObject: {fileID: 0}
  m_PrefabInstance: {fileID: 0}
  m_PrefabAsset: {fileID: 0}
  serializedVersion: 6
  m_Component:
  - component: {fileID: 4698426928446620}
  m_Layer: 0
  m_Name: Neck4_M
  m_TagString: Untagged
  m_Icon: {fileID: 0}
  m_NavMeshLayer: 0
  m_StaticEditorFlags: 0
  m_IsActive: 1
--- !u!4 &4698426928446620
Transform:
  m_ObjectHideFlags: 0
  m_CorrespondingSourceObject: {fileID: 0}
  m_PrefabInstance: {fileID: 0}
  m_PrefabAsset: {fileID: 0}
  m_GameObject: {fileID: 1913721679645314}
  m_LocalRotation: {x: 0, y: 0, z: -0.059851002, w: 0.99820733}
  m_LocalPosition: {x: -0.052311152, y: -2.9842794e-15, z: -3.580828e-15}
  m_LocalScale: {x: 1, y: 1, z: 1}
  m_ConstrainProportionsScale: 0
  m_Children:
  - {fileID: 4124410596085224}
  m_Father: {fileID: 4386222867311704}
  m_RootOrder: 0
  m_LocalEulerAnglesHint: {x: 0, y: 0, z: -6.8625197}
--- !u!1 &1919271050741050
GameObject:
  m_ObjectHideFlags: 0
  m_CorrespondingSourceObject: {fileID: 0}
  m_PrefabInstance: {fileID: 0}
  m_PrefabAsset: {fileID: 0}
  serializedVersion: 6
  m_Component:
  - component: {fileID: 4597854386979980}
  m_Layer: 0
  m_Name: Neck1_M
  m_TagString: Untagged
  m_Icon: {fileID: 0}
  m_NavMeshLayer: 0
  m_StaticEditorFlags: 0
  m_IsActive: 1
--- !u!4 &4597854386979980
Transform:
  m_ObjectHideFlags: 0
  m_CorrespondingSourceObject: {fileID: 0}
  m_PrefabInstance: {fileID: 0}
  m_PrefabAsset: {fileID: 0}
  m_GameObject: {fileID: 1919271050741050}
  m_LocalRotation: {x: 0, y: 0, z: 0.22117646, w: 0.9752338}
  m_LocalPosition: {x: -0.051101685, y: -5.3645976e-15, z: 2.1797751e-15}
  m_LocalScale: {x: 1, y: 1, z: 1}
  m_ConstrainProportionsScale: 0
  m_Children:
  - {fileID: 4961832751968436}
  m_Father: {fileID: 4019539519368570}
  m_RootOrder: 0
  m_LocalEulerAnglesHint: {x: 0, y: 0, z: 19.355394}
--- !u!1 &1932574952932056
GameObject:
  m_ObjectHideFlags: 0
  m_CorrespondingSourceObject: {fileID: 0}
  m_PrefabInstance: {fileID: 0}
  m_PrefabAsset: {fileID: 0}
  serializedVersion: 6
  m_Component:
  - component: {fileID: 4501781408794758}
  m_Layer: 0
  m_Name: frontKnee_R
  m_TagString: Untagged
  m_Icon: {fileID: 0}
  m_NavMeshLayer: 0
  m_StaticEditorFlags: 0
  m_IsActive: 1
--- !u!4 &4501781408794758
Transform:
  m_ObjectHideFlags: 0
  m_CorrespondingSourceObject: {fileID: 0}
  m_PrefabInstance: {fileID: 0}
  m_PrefabAsset: {fileID: 0}
  m_GameObject: {fileID: 1932574952932056}
  m_LocalRotation: {x: 0, y: 0, z: -0.22784717, w: 0.97369695}
  m_LocalPosition: {x: -0.10108182, y: -4.675371e-14, z: 1.6289192e-14}
  m_LocalScale: {x: 1, y: 1, z: 1}
  m_ConstrainProportionsScale: 0
  m_Children:
  - {fileID: 4556335621616610}
  m_Father: {fileID: 4929820890244230}
  m_RootOrder: 0
  m_LocalEulerAnglesHint: {x: 0, y: 0, z: -142.083}
